INSERT INTO library VALUES
    (null,'M2161001','Left Pack Control Unit','LS2035479','PCU-L CH 2','HAM56-21PC-1030'),
    (null,'M2161002','Right Pack Control Unit','LS1571467','PCU-R CH 1','HAM56-21PC-1030'),
    (null,'M2161002','Right Pack Control Unit','LS1861485','PCU-R CH 2','HAM56-21PC-1030'),
    (null,'M2131003','Forward Valve Control Unit','LS1671729','VCU-FWD CH L','NMF51-21VC-0200'),
    (null,'M2131003','Forward Valve Control Unit','LS1341797','VCU-FWD CH R','NMF51-21VC-0200'),
    (null,'M2131004','Aft Valve Control Unit','LS1451590','VCU-AFT CH L','NMF51-21VC-0200'),
    (null,'M2131004','Aft Valve Control Unit','LS1201688','VCU-AFT CH R','NMF51-21VC-0200'),
    (null,'M2315101','Left Satellite Receiver Transmitter','LS1934435','23 SATCOM-L','COL40-0001-0001'),
    (null,'M2315101','Left Satellite Receiver Transmitter','LS1934435','23 SATCOM-L','RAM28-SAT1-0001'),
    (null,'M2315101','Left Satellite Receiver Transmitter','LS1934435','23 SATCOM-L','COL41-0022-0001'),
    (null,'M2351011','Left Forward Audio Gateway Unit','LS1813837','AGU-L FWD','COL40-0003-0003'),
    (null,'M2351014','Left Aft Audio Gateway Unit','LS1513945','AGU-L AFT','COL40-0003-0003'),
    (null,'M2351013','Right Forward Audio Gateway Unit','LS1394034','AGU-R FWD','COL40-0003-0003'),
    (null,'M2351015','Right Aft Audio Gateway Unit','LS1444092','AGU-R AFT','COL40-0003-0003'),
    (null,'M2351001','Captain`s Audio Control Panel','LS1353630','ACP-CAPT','COL41-0002-0003'),
    (null,'M2351002','First Officer`s Audio Control Panel','LS1393491','ACP-FO','COL41-0002-0003'),
    (null,'M2351003','First Observer`s Audio Control Panel','LS1753507','ACP-FOBS','COL41-0002-0003'),
    (null,'M2409032','P300M1 Slot-1 Standard Circuit Card','LS2663738','SPDU-P300 1','HAM4F-0700-6831'),
    (null,'M2409032','P300M1 Slot-1 Standard Circuit Card','LS2663738','SPDU-P300 1','HAM44-0700-6809'),
    (null,'M2409033','P300M2 Slot-18 Standard Circuit Card','LS2383759','SPDU-P300 2','HAM4F-0700-6831'),
    (null,'M2409033','P300M2 Slot-18 Standard Circuit Card','LS2383759','SPDU-P300 2','HAM44-0700-6809'),
    (null,'M2409052','P400M1 Slot-1 Standard Circuit Card','LS2533917','SPDU-P400 1','HAM4F-0700-6831'),
    (null,'M2409052','P400M1 Slot-1 Standard Circuit Card','LS2533917','SPDU-P400 1','HAM44-0700-6809'),
    (null,'M2409053','P400M2 Slot-18 Standard Circuit Card','LS2063941','SPDU-P400 2','HAM4F-0700-6831'),
    (null,'M2409053','P400M2 Slot-18 Standard Circuit Card','LS2063941','SPDU-P400 2','HAM44-0700-6809'),
    (null,'M2409001','P100M1 ELCU Communications Circuit Card','LS2603956','ELCU-P100 1','HAM41-0700-6073'),
    (null,'M2409001','P100M1 ELCU Communications Circuit Card','LS2603956','ELCU-P100 1','ITE56-7793-0523'),
    (null,'M2409002','P100M2 ELCU Communications Circuit Card','LS2354058','ELCU-P100 2','HAM41-0700-6073'),
    (null,'M2409002','P100M2 ELCU Communications Circuit Card','LS2354058','ELCU-P100 2','ITE56-7793-0523'),
    (null,'M2409014','P200M1 ELCU Communications Circuit Card','LS2134096','ELCU-P200 1','HAM41-0700-6073'),
    (null,'M2409014','P200M1 ELCU Communications Circuit Card','LS2134096','ELCU-P200 1','ITE56-7793-0523'),
    (null,'M2409015','P200M2 ELCU Communications Circuit Card','LS2674176','ELCU-P200 2','HAM41-0700-6073'),
    (null,'M2409015','P200M2 ELCU Communications Circuit Card','LS2674176','ELCU-P200 2','ITE56-7793-0523'),
    (null,'M2409026','P300M1 ELCU Communications Circuit Card','LS2114209','ELCU-P300 1','HAM41-0700-6073'),
    (null,'M2409026','P300M1 ELCU Communications Circuit Card','LS2114209','ELCU-P300 1','ITE56-7793-0523'),
    (null,'M2409027','P300M2 ELCU Communications Circuit Card','LS2044213','ELCU-P300 2','HAM41-0700-6073'),
    (null,'M2409027','P300M2 ELCU Communications Circuit Card','LS2044213','ELCU-P300 2','ITE56-7793-0523'),
    (null,'M2409047','P400M1 ELCU Communications Circuit Card','LS2434327','ELCU-P400 1','HAM41-0700-6073'),
    (null,'M2409047','P400M1 ELCU Communications Circuit Card','LS2434327','ELCU-P400 1','ITE56-7793-0523'),
    (null,'M2409048','P400M2 ELCU Communications Circuit Card','LS2264344','ELCU-P400 2','HAM41-0700-6073'),
    (null,'M2409048','P400M2 ELCU Communications Circuit Card','LS2264344','ELCU-P400 2','ITE56-7793-0523'),
    (null,'M2415012','Common Motor Start Controller (Left 1 EMP)','LS2611134','CMSC EMP-L1','HAM4A-0720-0496'),
    (null,'M2415032','Common Motor Start Controller (Right 1 EMP)','LS2681309','CMSC EMP-R1','HAM4A-0720-0496'),
    (null,'M2415011','Common Motor Start Controller (Left 1 CAC)','LS2011225','CMSC CAC-L1','HAM4A-0720-0496'),
    (null,'M2415031','Common Motor Start Controller (Right 1 CAC)','LS2031354','CMSC CAC-R1','HAM4A-0720-0496'),
    (null,'M2415022','Common Motor Start Controller (Left 2 EMP)','LS2861270','CMSC EMP-L2','HAM4A-0720-0496'),
    (null,'M2415042','Common Motor Start Controller (Right 2 EMP)','LS2301380','CMSC EMP-R2','HAM4A-0720-0496'),
    (null,'M2415021','Common Motor Start Controller (Left 2 CAC)','LS2471281','CMSC CAC-L2','HAM4A-0720-0496'),
    (null,'M2415041','Common Motor Start Controller (Right 2 CAC)','LS2871436','CMSC CAC-R2','HAM4A-0720-0496'),
    (null,'M2441001','Left Bus Power Control Unit','LS2994424','BPCU GATEWAY-L','HAM4C-0720-0508'),
    (null,'M2441001','Left Bus Power Control Unit','LS3561894','BPCU LOGIC-L','HAM40-0720-0504'),
    (null,'M2441002','Right Bus Power Control Unit','LS2364481','BPCU GATEWAY-R','HAM4C-0720-0508'),
    (null,'M2441002','Right Bus Power Control Unit','LS3671931','BPCU LOGIC-R','HAM40-0720-0504'),
    (null,'M2422001','Left 1 Generator Control Unit','LS2234775','GCU-L1','HAM47-0720-0512'),
    (null,'M2422002','Left 2 Generator Control Unit','LS2444874','GCU-L2','HAM47-0720-0512'),
    (null,'M2422003','Right 1 Generator Control Unit','LS2734939','GCU-R1','HAM47-0720-0512'),
    (null,'M2422004','Right 2 Generator Control Unit','LS2684988','GCU-R2','HAM47-0720-0512'),
    (null,'M2422005','Left Aux Generator Control Unit','LS2464990','AGCU-L','HAM47-0720-0512'),
    (null,'M2422006','Right Aux Generator Control Unit','LS2845014','AGCU-R','HAM47-0720-0512'),
    (null,'M2471021M1','RPDU 21M1 Standard Circuit Card','LS2322179','RPDU-21 CH A','HAM4A-0700-6834'),
    (null,'M2471021M1','RPDU 21M1 Standard Circuit Card','LS2322179','RPDU-21 CH A','HAM44-0700-6809'),
    (null,'M2471021M8','RPDU 21M8 Standard Circuit Card','LS2605467','RPDU-21 CH B','HAM4A-0700-6834'),
    (null,'M2471021M8','RPDU 21M8 Standard Circuit Card','LS2605467','RPDU-21 CH B','HAM44-0700-6809'),
    (null,'M2471071M1','RPDU 71M1 Gateway Circuit Card','LS2852521','RPDU-71 CH A','HAM4A-0700-6834'),
    (null,'M2471071M1','RPDU 71M1 Gateway Circuit Card','LS2852521','RPDU-71 CH A','HAM44-0700-6809'),
    (null,'M2471071M8','RPDU 71M8 Gateway Circuit Card','LS2922731','RPDU-71 CH B','HAM4A-0700-6834'),
    (null,'M2471071M8','RPDU 71M8 Gateway Circuit Card','LS2922731','RPDU-71 CH B','HAM44-0700-6809'),
    (null,'M2471073M1','RPDU 73M1 Standard Circuit Card','LS2781722','RPDU-73 CH A','HAM4A-0700-6834'),
    (null,'M2471073M1','RPDU 73M1 Standard Circuit Card','LS2781722','RPDU-73 CH A','HAM44-0700-6809'),
    (null,'M2471073M8','RPDU 73M8 Standard Circuit Card','LS2531733','RPDU-73 CH B','HAM4A-0700-6834'),
    (null,'M2471073M8','RPDU 73M8 Standard Circuit Card','LS2531733','RPDU-73 CH B','HAM44-0700-6809'),
    (null,'M2471075M1','RPDU 75M1 Standard Circuit Card','LS2621885','RPDU-75 CH A','HAM4A-0700-6834'),
    (null,'M2471075M1','RPDU 75M1 Standard Circuit Card','LS2621885','RPDU-75 CH A','HAM44-0700-6809'),
    (null,'M2471075M8','RPDU 75M8 Standard Circuit Card','LS2561929','RPDU-75 CH B','HAM4A-0700-6834'),
    (null,'M2471075M8','RPDU 75M8 Standard Circuit Card','LS2561929','RPDU-75 CH B','HAM44-0700-6809'),
    (null,'M2471022M1','RPDU 22M1 Standard Circuit Card','LS2552310','RPDU-22 CH A','HAM4D-0700-6998'),
    (null,'M2471022M1','RPDU 22M1 Standard Circuit Card','LS2552310','RPDU-22 CH A','HAM44-0700-6809'),
    (null,'M2471022M8','RPDU 22M8 Standard Circuit Card','LS2282323','RPDU-22 CH B','HAM4D-0700-6998'),
    (null,'M2471022M8','RPDU 22M8 Standard Circuit Card','LS2282323','RPDU-22 CH B','HAM44-0700-6809'),
    (null,'M2471072M1','RPDU 72M1 Gateway Circuit Card','LS2632760','RPDU-72 CH A','HAM4D-0700-6998'),
    (null,'M2471072M1','RPDU 72M1 Gateway Circuit Card','LS2632760','RPDU-72 CH A','HAM44-0700-6809'),
    (null,'M2471072M8','RPDU 72M8 Gateway Circuit Card','LS2522843','RPDU-72 CH B','HAM4D-0700-6998'),
    (null,'M2471072M8','RPDU 72M8 Gateway Circuit Card','LS2522843','RPDU-72 CH B','HAM44-0700-6809'),
    (null,'M2471074M1','RPDU 74M1 Standard Circuit Card','LS2041807','RPDU-74 CH A','HAM4D-0700-6998'),
    (null,'M2471074M1','RPDU 74M1 Standard Circuit Card','LS2041807','RPDU-74 CH A','HAM44-0700-6809'),
    (null,'M2471074M8','RPDU 74M8 Standard Circuit Card','LS2391878','RPDU-74 CH B','HAM4D-0700-6998'),
    (null,'M2471074M8','RPDU 74M8 Standard Circuit Card','LS2391878','RPDU-74 CH B','HAM44-0700-6809'),
    (null,'M2471076M1','RPDU 76M1 Standard Circuit Card','LS2151984','RPDU-76 CH A','HAM4D-0700-6998'),
    (null,'M2471076M1','RPDU 76M1 Standard Circuit Card','LS2151984','RPDU-76 CH A','HAM44-0700-6809'),
    (null,'M2471076M8','RPDU 76M8 Standard Circuit Card','LS2432005','RPDU-76 CH B','HAM4D-0700-6998'),
    (null,'M2471076M8','RPDU 76M8 Standard Circuit Card','LS2432005','RPDU-76 CH B','HAM44-0700-6809'),
    (null,'M2471031M1','RPDU 31M1 Standard Circuit Card','LS2332444','RPDU-31 CH A','HAM46-0700-6829'),
    (null,'M2471031M1','RPDU 31M1 Standard Circuit Card','LS2332444','RPDU-31 CH A','HAM44-0700-6809'),
    (null,'M2471031M8','RPDU 31M8 Standard Circuit Card','LS2182455','RPDU-31 CH B','HAM46-0700-6829'),
    (null,'M2471031M8','RPDU 31M8 Standard Circuit Card','LS2182455','RPDU-31 CH B','HAM44-0700-6809'),
    (null,'M2471033M1','RPDU 33M1 Standard Circuit Card','LS2052034','RPDU-33 CH A','HAM46-0700-6829'),
    (null,'M2471033M1','RPDU 33M1 Standard Circuit Card','LS2052034','RPDU-33 CH A','HAM44-0700-6809'),
    (null,'M2471033M8','RPDU 33M8 Standard Circuit Card','LS2812080','RPDU-33 CH B','HAM46-0700-6829'),
    (null,'M2471033M8','RPDU 33M8 Standard Circuit Card','LS2812080','RPDU-33 CH B','HAM44-0700-6809'),
    (null,'M2471041M1','RPDU 41M1 Standard Circuit Card','LS2793228','RPDU-41 CH A','HAM46-0700-6829'),
    (null,'M2471041M1','RPDU 41M1 Standard Circuit Card','LS2793228','RPDU-41 CH A','HAM44-0700-6809'),
    (null,'M2471041M8','RPDU 41M8 Standard Circuit Card','LS2523239','RPDU-41 CH B','HAM46-0700-6829'),
    (null,'M2471041M8','RPDU 41M8 Standard Circuit Card','LS2523239','RPDU-41 CH B','HAM44-0700-6809'),
    (null,'M2471081M1','RPDU 81M1 Gateway Circuit Card','LS2012868','RPDU-81 CH A','HAM46-0700-6829'),
    (null,'M2471081M1','RPDU 81M1 Gateway Circuit Card','LS2012868','RPDU-81 CH A','HAM44-0700-6809'),
    (null,'M2471081M8','RPDU 81M8 Gateway Circuit Card','LS2882896','RPDU-81 CH B','HAM46-0700-6829'),
    (null,'M2471081M8','RPDU 81M8 Gateway Circuit Card','LS2882896','RPDU-81 CH B','HAM44-0700-6809'),
    (null,'M2471032M1','RPDU 32M1 Standard Circuit Card','LS2633072','RPDU-32 CH A','HAM4E-0700-6830'),
    (null,'M2471032M1','RPDU 32M1 Standard Circuit Card','LS2633072','RPDU-32 CH A','HAM44-0700-6809'),
    (null,'M2471032M8','RPDU 32M8 Standard Circuit Card','LS2983184','RPDU-32 CH B','HAM4E-0700-6830'),
    (null,'M2471032M8','RPDU 32M8 Standard Circuit Card','LS2983184','RPDU-32 CH B','HAM44-0700-6809'),
    (null,'M2471034M1','RPDU 34M1 Standard Circuit Card','LS2902103','RPDU-34 CH A','HAM4E-0700-6830'),
    (null,'M2471034M1','RPDU 34M1 Standard Circuit Card','LS2902103','RPDU-34 CH A','HAM44-0700-6809'),
    (null,'M2471034M8','RPDU 34M8 Standard Circuit Card','LS2492137','RPDU-34 CH B','HAM4E-0700-6830'),
    (null,'M2471034M8','RPDU 34M8 Standard Circuit Card','LS2492137','RPDU-34 CH B','HAM44-0700-6809'),
    (null,'M2471042M1','RPDU 42M1 Standard Circuit Card','LS2183347','RPDU-42 CH A','HAM4E-0700-6830'),
    (null,'M2471042M1','RPDU 42M1 Standard Circuit Card','LS2183347','RPDU-42 CH A','HAM44-0700-6809'),
    (null,'M2471042M8','RPDU 42M8 Standard Circuit Card','LS2453411','RPDU-42 CH B','HAM4E-0700-6830'),
    (null,'M2471042M8','RPDU 42M8 Standard Circuit Card','LS2453411','RPDU-42 CH B','HAM44-0700-6809'),
    (null,'M2471082M1','RPDU 82M1 Gateway Circuit Card','LS2893007','RPDU-82 CH A','HAM4E-0700-6830'),
    (null,'M2471082M1','RPDU 82M1 Gateway Circuit Card','LS2893007','RPDU-82 CH A','HAM44-0700-6809'),
    (null,'M2471082M8','RPDU 82M8 Gateway Circuit Card','LS2253043','RPDU-82 CH B','HAM4E-0700-6830'),
    (null,'M2471082M8','RPDU 82M8 Gateway Circuit Card','LS2253043','RPDU-82 CH B','HAM44-0700-6809'),
    (null,'M2471092M1','RPDU 92M1 Standard Circuit Card','LS2343616','RPDU-92 CH A','HAM4E-0700-6830'),
    (null,'M2471092M1','RPDU 92M1 Standard Circuit Card','LS2343616','RPDU-92 CH A','HAM44-0700-6809'),
    (null,'M2471092M8','RPDU 92M8 Standard Circuit Card','LS2933665','RPDU-92 CH B','HAM4E-0700-6830'),
    (null,'M2471092M8','RPDU 92M8 Standard Circuit Card','LS2933665','RPDU-92 CH B','HAM44-0700-6809'),
    (null,'M2611101','Left Main Engine Data Concentrator','LS2747299','MEDC MES-L CH A','GRH5C-0118-9101'),
    (null,'M2611101','Left Main Engine Data Concentrator','LS2617216','MEDC MES-L CH B','GRH5C-0118-9101'),
    (null,'M2611201','Right Main Engine Data Concentrator','LS2247585','MEDC MES-R CH A','GRH5C-0118-9101'),
    (null,'M2611201','Right Main Engine Data Concentrator','LS2357493','MEDC MES-R CH B','GRH5C-0118-9101'),
    (null,'M2611101','Left Main Engine Data Concentrator','LS2766714','MEDC DCS-L CH A','GRH54-0119-0101'),
    (null,'M2611101','Left Main Engine Data Concentrator','LS2836649','MEDC DCS-L CH B','GRH54-0119-0101'),
    (null,'M2611201','Right Main Engine Data Concentrator','LS2117181','MEDC DCS-R CH A','GRH54-0119-0101'),
    (null,'M2611201','Right Main Engine Data Concentrator','LS2266958','MEDC DCS-R CH B','GRH54-0119-0101'),
    (null,'E2702003M3','Left Flight Controls Module','LS1731825','FCM-L','HNP21-AD0E-5002'),
    (null,'E2702003M3','Left Flight Controls Module','LS1731825','FCM-L','HNP51-AD04-5003'),
    (null,'E2702003M3','Left Flight Controls Module','LS1731825','FCM-L','HNP5F-AD09-5022'),
    (null,'E2702003M3','Left Flight Controls Module','LS1731825','FCM-L','HNP5F-AL01-5022'),
    (null,'E2702001M3','C1 Flight Controls Module','LS1521993','FCM-C','HNP21-AD0E-5002'),
    (null,'E2702001M3','C1 Flight Controls Module','LS1521993','FCM-C','HNP51-AD04-5003'),
    (null,'E2702001M3','C1 Flight Controls Module','LS1521993','FCM-C','HNP5F-AD09-5022'),
    (null,'E2702001M3','C1 Flight Controls Module','LS1521993','FCM-C','HNP5F-AL01-5022'),
    (null,'E2702004M3','Right Flight Controls Module','LS1071950','FCM-R','HNP21-AD0E-5002'),
    (null,'E2702004M3','Right Flight Controls Module','LS1071950','FCM-R','HNP51-AD04-5003'),
    (null,'E2702004M3','Right Flight Controls Module','LS1071950','FCM-R','HNP5F-AD09-5022'),
    (null,'E2702004M3','Right Flight Controls Module','LS1071950','FCM-R','HNP5F-AL01-5022'),
    (null,'M2822601','Fuel Shutoff Module','LS2395605','FSM','GRH5D-0118-8202'),
    (null,'M2841102','Center Fuel Quantity Data Concentrator','LS1122392','FQDC-C CH A','GRH51-0118-4101'),
    (null,'M2841102','Center Fuel Quantity Data Concentrator','LS1292446','FQDC-C CH B','GRH53-0118-5102'),
    (null,'M2841102','Center Fuel Quantity Data Concentrator','LS1292446','FQDC-C CH B','GRH51-0118-4101'),
    (null,'M2841101','Left Fuel Quantity Data Concentrator','LS1112008','FQDC-L CH A','GRH51-0118-4101'),
    (null,'M2841101','Left Fuel Quantity Data Concentrator','LS1662109','FQDC-L CH B','GRH53-0118-5102'),
    (null,'M2841101','Left Fuel Quantity Data Concentrator','LS1662109','FQDC-L CH B','GRH51-0118-4101'),
    (null,'M2841103','Right Fuel Quantity Data Concentrator','LS1972223','FQDC-R CH A','GRH51-0118-4101'),
    (null,'M2841103','Right Fuel Quantity Data Concentrator','LS1712319','FQDC-R CH B','GRH53-0118-5102'),
    (null,'M2841103','Right Fuel Quantity Data Concentrator','LS1712319','FQDC-R CH B','GRH51-0118-4101'),
    (null,'M2821000','Refuel Control Panel','LS1302513','RCP-CH A','GRH53-0118-6101'),
    (null,'M2821000','Refuel Control Panel','LS1482529','RCP-CH B','GRH53-0118-6101'),
    (null,'M3011001M26','Wing Ice Protection Controller Unit','LS2386025','WIPCU','UEL28-001A-1063'),
    (null,'M3011001M26','Wing Ice Protection Controller Unit','LS2386025','WIPCU','UEL28-001A-1063'),
    (null,'M3131001','Forward Flight Recorder Module','LS1254168','FLT REC-FWD','COL41-0004-0005'),
    (null,'M3131001','Forward Flight Recorder Module','LS1254168','FLT REC-FWD','BCG23-U000-0264'),
    (null,'M3131002','Aft Flight Recorder Module','LS1144323','FLT REC-AFT','COL41-0004-0005'),
    (null,'M3131002','Aft Flight Recorder Module','LS1144323','FLT REC-AFT','BCG23-U000-0264'),
    (null,'M3133001','Flight Deck Printer Module 1','LS1075315','FD PRINTER','TMD59-0200-0600'),
    (null,'E4220001M11','Left 1 Graphic Generator Module','LS1854933','GGM-1','COL47-0015-0021'),
    (null,'E4220001M11','Left 1 Graphic Generator Module','LS1854933','GGM-1','COL48-0029-0021'),
    (null,'E4220001M11','Left 1 Graphic Generator Module','LS1854933','GGM-1','COL47-0016-0022'),
    (null,'E4220001M11','Left 1 Graphic Generator Module','LS1854933','GGM-1','COL4B-0019-0021'),
    (null,'E4220001M11','Left 1 Graphic Generator Module','LS1854933','GGM-1','COL41-0020-0021'),
    (null,'E4220001M11','Left 1 Graphic Generator Module','LS1854933','GGM-1','HAM47-0700-3315'),
    (null,'E4220001M11','Left 1 Graphic Generator Module','LS1854933','GGM-1','HNP52-AD22-5004'),
    (null,'E4220001M11','Left 1 Graphic Generator Module','LS1854933','GGM-1','BSM2E-E099-0034'),
    (null,'E4220001M11','Left 1 Graphic Generator Module','LS1854933','GGM-1','HNP56-AD32-5001'),
    (null,'E4220001M11','Left 1 Graphic Generator Module','LS1854933','GGM-1','HNP51-AD14-5002 '),
    (null,'E4220001M11','Left 1 Graphic Generator Module','LS1854933','GGM-1','COL43-0013-0100'),
    (null,'E4220001M10','Left 2 Graphic Generator Module','LS1294977','GGM-2','COL47-0015-0021'),
    (null,'E4220001M10','Left 2 Graphic Generator Module','LS1294977','GGM-2','COL48-0029-0021'),
    (null,'E4220001M10','Left 2 Graphic Generator Module','LS1294977','GGM-2','COL47-0016-0022'),
    (null,'E4220001M10','Left 2 Graphic Generator Module','LS1294977','GGM-2','COL4B-0019-0021'),
    (null,'E4220001M10','Left 2 Graphic Generator Module','LS1294977','GGM-2','COL41-0020-0021'),
    (null,'E4220001M10','Left 2 Graphic Generator Module','LS1294977','GGM-2','HAM47-0700-3315'),
    (null,'E4220001M10','Left 2 Graphic Generator Module','LS1294977','GGM-2','HNP52-AD22-5004'),
    (null,'E4220001M10','Left 2 Graphic Generator Module','LS1294977','GGM-2','BSM2E-E099-0034'),
    (null,'E4220001M10','Left 2 Graphic Generator Module','LS1294977','GGM-2','HNP56-AD32-5001'),
    (null,'E4220001M10','Left 2 Graphic Generator Module','LS1294977','GGM-2','HNP51-AD14-5002'),
    (null,'E4220001M10','Left 2 Graphic Generator Module','LS1294977','GGM-2','COL43-0013-0100'),
    (null,'E4220002M11','Right 3 Graphic Generator Module','LS1025067','GGM-3','COL47-0015-0021'),
    (null,'E4220002M11','Right 3 Graphic Generator Module','LS1025067','GGM-3','COL48-0029-0021'),
    (null,'E4220002M11','Right 3 Graphic Generator Module','LS1025067','GGM-3','COL47-0016-0022'),
    (null,'E4220002M11','Right 3 Graphic Generator Module','LS1025067','GGM-3','COL4B-0019-0021'),
    (null,'E4220002M11','Right 3 Graphic Generator Module','LS1025067','GGM-3','COL41-0020-0021'),
    (null,'E4220002M11','Right 3 Graphic Generator Module','LS1025067','GGM-3','HAM47-0700-3315'),
    (null,'E4220002M11','Right 3 Graphic Generator Module','LS1025067','GGM-3','HNP52-AD22-5004'),
    (null,'E4220002M11','Right 3 Graphic Generator Module','LS1025067','GGM-3','BSM2E-E099-0034'),
    (null,'E4220002M11','Right 3 Graphic Generator Module','LS1025067','GGM-3','HNP56-AD32-5001'),
    (null,'E4220002M11','Right 3 Graphic Generator Module','LS1025067','GGM-3','HNP51-AD14-5002'),
    (null,'E4220002M11','Right 3 Graphic Generator Module','LS1025067','GGM-3','COL43-0013-0100'),
    (null,'E4220002M10','Right 4 Graphic Generator Module','LS1495089','GGM-4','COL47-0015-0021'),
    (null,'E4220002M10','Right 4 Graphic Generator Module','LS1495089','GGM-4','COL48-0029-0021'),
    (null,'E4220002M10','Right 4 Graphic Generator Module','LS1495089','GGM-4','COL47-0016-0022'),
    (null,'E4220002M10','Right 4 Graphic Generator Module','LS1495089','GGM-4','COL4B-0019-0021'),
    (null,'E4220002M10','Right 4 Graphic Generator Module','LS1495089','GGM-4','COL41-0020-0021'),
    (null,'E4220002M10','Right 4 Graphic Generator Module','LS1495089','GGM-4','HAM47-0700-3315'),
    (null,'E4220002M10','Right 4 Graphic Generator Module','LS1495089','GGM-4','HNP52-AD22-5004'),
    (null,'E4220002M10','Right 4 Graphic Generator Module','LS1495089','GGM-4','BSM2E-E099-0034'),
    (null,'E4220002M10','Right 4 Graphic Generator Module','LS1495089','GGM-4','HNP56-AD32-5001'),
    (null,'E4220002M10','Right 4 Graphic Generator Module','LS1495089','GGM-4','HNP51-AD14-5002'),
    (null,'E4220002M10','Right 4 Graphic Generator Module','LS1495089','GGM-4','COL43-0013-0100'),
    (null,'M3208001','Proximity Sensing Data Concentrator Module 1','LS2350966','PSDC-1','GRH55-0118-3102'),
    (null,'M3208002','Proximity Sensing Data Concentrator Module 2','LS2810972','PSDC-2','GRH55-0118-3102'),
    (null,'M3208003','Proximity Sensing Data Concentrator Module 3','LS2970989','PSDC-3','GRH55-0118-3102'),
    (null,'M3208004','Proximity Sensing Data Concentrator Module 4','LS2501004','PSDC-4','GRH55-0118-3102'),
    (null,'M3208005','Proximity Sensing Data Concentrator Module 5','LS2081018','PSDC-5','GRH55-0118-3102'),
    (null,'M3208006','Proximity Sensing Data Concentrator Module 6','LS2941069','PSDC-6','GRH55-0118-3102'),
    (null,'M5211101','Door 1L EPAS Module','LS2570515','EPAS-1L','GRH50-0118-7103'),
    (null,'M5211201','Door 1R EPAS Module','LS2840768','EPAS-1R','GRH50-0118-7103'),
    (null,'M5211102','Door 2&amp;3L EPAS Module','LS2740547','EPAS-2L','GRH50-0118-7103'),
    (null,'M5211202','Door 2&amp;3R EPAS Module','LS2980827','EPAS-2R','GRH50-0118-7103'),
    (null,'M5211102','Door 2&amp;3L EPAS Module','LS2520667','EPAS-3L','GRH50-0118-7103'),
    (null,'M5211202','Door 2&amp;3R EPAS Module','LS2170831','EPAS-3R','GRH50-0118-7103'),
    (null,'M5211104','Door 4L EPAS Module','LS2480746','EPAS-4L','GRH50-0118-7103'),
    (null,'M5211204','Door 4R EPAS Module','LS2220898','EPAS-4R','GRH50-0118-7103'),
    (null,'M3241005','Wheels 1&amp;5 Electric Brake Actuation Controller','LS1380567','EBAC-LO FWD','FMB39-1001-02C1'),
    (null,'M3241005','Wheels 1&amp;5 Electric Brake Actuation Controller','LS1380567','EBAC-LO FWD','FMB3B-1002-02B1'),
    (null,'M3241005','Wheels 1&amp;5 Electric Brake Actuation Controller','LS1380567','EBAC-LO FWD','FMB39-1003-02A1'),
    (null,'M3241005','Wheels 1&amp;5 Electric Brake Actuation Controller','LS1380567','EBAC-LO FWD','FMB3E-1004-02A1'),
    (null,'M3241005','Wheels 1&amp;5 Electric Brake Actuation Controller','LS1380567','EBAC-LO FWD','FMB3C-1005-02B1');
    ('M3241006','Wheels 2&amp;6 Electric Brake Actuation Controller','LS1320455','EBAC-LI FWD','FMB39-1001-02C1'),
INSERT INTO library VALUES
    (null,'M3241006','Wheels 2&amp;6 Electric Brake Actuation Controller','LS1320455','EBAC-LI FWD','FMB3B-1002-02B1'),
    (null,'M3241006','Wheels 2&amp;6 Electric Brake Actuation Controller','LS1320455','EBAC-LI FWD','FMB39-1003-02A1'),
    (null,'M3241006','Wheels 2&amp;6 Electric Brake Actuation Controller','LS1320455','EBAC-LI FWD','FMB3E-1004-02A1'),
    (null,'M3241006','Wheels 2&amp;6 Electric Brake Actuation Controller','LS1320455','EBAC-LI FWD','FMB3C-1005-02B1'),
    (null,'M3241007','Wheels 3&amp;7 Electric Brake Actuation Controller','LS1730589','EBAC-RI FWD','FMB39-1001-02C1'),
    (null,'M3241007','Wheels 3&amp;7 Electric Brake Actuation Controller','LS1730589','EBAC-RI FWD','FMB3B-1002-02B1'),
    (null,'M3241007','Wheels 3&amp;7 Electric Brake Actuation Controller','LS1730589','EBAC-RI FWD','FMB39-1003-02A1'),
    (null,'M3241007','Wheels 3&amp;7 Electric Brake Actuation Controller','LS1730589','EBAC-RI FWD','FMB3E-1004-02A1'),
    (null,'M3241007','Wheels 3&amp;7 Electric Brake Actuation Controller','LS1730589','EBAC-RI FWD','FMB3C-1005-02B1'),
    (null,'M3241005','Wheels 1&amp;5 Electric Brake Actuation Controller','LS1430652','EBAC-LO AFT','FMB39-1001-02C1'),
    (null,'M3241005','Wheels 1&amp;5 Electric Brake Actuation Controller','LS1430652','EBAC-LO AFT','FMB3B-1002-02B1'),
    (null,'M3241005','Wheels 1&amp;5 Electric Brake Actuation Controller','LS1430652','EBAC-LO AFT','FMB39-1003-02A1'),
    (null,'M3241005','Wheels 1&amp;5 Electric Brake Actuation Controller','LS1430652','EBAC-LO AFT','FMB3E-1004-02A1'),
    (null,'M3241005','Wheels 1&amp;5 Electric Brake Actuation Controller','LS1430652','EBAC-LO AFT','FMB3C-1005-02B1'),
    (null,'M3241006','Wheels 2&amp;6 Electric Brake Actuation Controller','LS1060617','EBAC-LI AFT','FMB39-1001-02C1'),
    (null,'M3241006','Wheels 2&amp;6 Electric Brake Actuation Controller','LS1060617','EBAC-LI AFT','FMB3B-1002-02B1'),
    (null,'M3241006','Wheels 2&amp;6 Electric Brake Actuation Controller','LS1060617','EBAC-LI AFT','FMB39-1003-02A1'),
    (null,'M3241006','Wheels 2&amp;6 Electric Brake Actuation Controller','LS1060617','EBAC-LI AFT','FMB3E-1004-02A1'),
    (null,'M3241006','Wheels 2&amp;6 Electric Brake Actuation Controller','LS1060617','EBAC-LI AFT','FMB3C-1005-02B1'),
    (null,'M3241007','Wheels 3&amp;7 Electric Brake Actuation Controller','LS1580676','EBAC-RI AFT','FMB39-1001-02C1'),
    (null,'M3241007','Wheels 3&amp;7 Electric Brake Actuation Controller','LS1580676','EBAC-RI AFT','FMB3B-1002-02B1'),
    (null,'M3241007','Wheels 3&amp;7 Electric Brake Actuation Controller','LS1580676','EBAC-RI AFT','FMB39-1003-02A1'),
    (null,'M3241007','Wheels 3&amp;7 Electric Brake Actuation Controller','LS1580676','EBAC-RI AFT','FMB3E-1004-02A1'),
    (null,'M3241007','Wheels 3&amp;7 Electric Brake Actuation Controller','LS1580676','EBAC-RI AFT','FMB3C-1005-02B1'),
    (null,'M3241008','Wheels 4&amp;8 Electric Brake Actuation Controller','LS1660593','EBAC-RO FWD','FMB39-1001-02C1'),
    (null,'M3241008','Wheels 4&amp;8 Electric Brake Actuation Controller','LS1660593','EBAC-RO FWD','FMB3B-1002-02B1'),
    (null,'M3241008','Wheels 4&amp;8 Electric Brake Actuation Controller','LS1660593','EBAC-RO FWD','FMB39-1003-02A1'),
    (null,'M3241008','Wheels 4&amp;8 Electric Brake Actuation Controller','LS1660593','EBAC-RO FWD','FMB3E-1004-02A1'),
    (null,'M3241008','Wheels 4&amp;8 Electric Brake Actuation Controller','LS1660593','EBAC-RO FWD','FMB3C-1005-02B1'),
    (null,'M3241008','Wheels 4&amp;8 Electric Brake Actuation Controller','LS1890694','EBAC-RO AFT','FMB39-1001-02C1'),
    (null,'M3241008','Wheels 4&amp;8 Electric Brake Actuation Controller','LS1890694','EBAC-RO AFT','FMB3B-1002-02B1'),
    (null,'M3241008','Wheels 4&amp;8 Electric Brake Actuation Controller','LS1890694','EBAC-RO AFT','FMB39-1003-02A1'),
    (null,'M3241008','Wheels 4&amp;8 Electric Brake Actuation Controller','LS1890694','EBAC-RO AFT','FMB3E-1004-02A1'),
    (null,'M3241008','Wheels 4&amp;8 Electric Brake Actuation Controller','LS1890694','EBAC-RO AFT','FMB3C-1005-02B1'),
    (null,'M3242001','Left Inboard &amp; Outboard Brake System Control Card','LS1180202','BSCU-LO','CRZ3A-0416-C100'),
    (null,'M3242001','Left Inboard &amp; Outboard Brake System Control Card','LS1180202','BSCU-LO','CRZ4B-0417-CA00'),
    (null,'M3242141','Main Gear Axle RDC 1','LS1600886','AXLE RDC-01','CRZ34-0418-C100'),
    (null,'M3242141','Main Gear Axle RDC 1','LS1600886','AXLE RDC-01','CRZ45-0419-CA00'),
    (null,'M3242145','Main Gear Axle RDC 5','LS1240953','AXLE RDC-05','CRZ34-0418-C100'),
    (null,'M3242145','Main Gear Axle RDC 5','LS1240953','AXLE RDC-05','CRZ45-0419-CA00'),
    (null,'M3242001','Left Inboard &amp; Outboard Brake System Control Card','LS1400165','BSCU-LI','CRZ3A-0416-C100'),
    (null,'M3242001','Left Inboard &amp; Outboard Brake System Control Card','LS1400165','BSCU-LI','CRZ4B-0417-CA00'),
    (null,'M3242142','Main Gear Axle RDC 2','LS1800747','AXLE RDC-02','CRZ34-0418-C100'),
    (null,'M3242142','Main Gear Axle RDC 2','LS1800747','AXLE RDC-02','CRZ45-0419-CA00'),
    (null,'M3242146','Main Gear Axle RDC 6','LS1330838','AXLE RDC-06','CRZ34-0418-C100'),
    (null,'M3242146','Main Gear Axle RDC 6','LS1330838','AXLE RDC-06','CRZ45-0419-CA00'),
    (null,'M3242002','Right Inboard &amp; Outboard Brake System Control Card','LS1920288','BSCU-RI','CRZ3A-0416-C100'),
    (null,'M3242002','Right Inboard &amp; Outboard Brake System Control Card','LS1920288','BSCU-RI','CRZ4B-0417-CA00'),
    (null,'M3242243','Main Gear Axle RDC 3','LS1590960','AXLE RDC-03','CRZ34-0418-C100'),
    (null,'M3242243','Main Gear Axle RDC 3','LS1590960','AXLE RDC-03','CRZ45-0419-CA00'),
    (null,'M3242247','Main Gear Axle RDC 7','LS1980991','AXLE RDC-07','CRZ34-0418-C100'),
    (null,'M3242247','Main Gear Axle RDC 7','LS1980991','AXLE RDC-07','CRZ45-0419-CA00'),
    (null,'M3242002','Right Inboard &amp; Outboard Brake System Control Card','LS1540442','BSCU-RO','CRZ3A-0416-C100'),
    (null,'M3242002','Right Inboard &amp; Outboard Brake System Control Card','LS1540442','BSCU-RO','CRZ4B-0417-CA00'),
    (null,'M3242244','Main Gear Axle RDC 4','LS1511022','AXLE RDC-04','CRZ34-0418-C100'),
    (null,'M3242244','Main Gear Axle RDC 4','LS1511022','AXLE RDC-04','CRZ45-0419-CA00'),
    (null,'M3242248','Main Gear Axle RDC 8','LS1351144','AXLE RDC-08','CRZ34-0418-C100'),
    (null,'M3242248','Main Gear Axle RDC 8','LS1351144','AXLE RDC-08','CRZ45-0419-CA00'),
    (null,'M3242149','Nose Gear Axle RDC 9','LS1631166','AXLE RDC-09','CRZ34-0418-C100'),
    (null,'M3242149','Nose Gear Axle RDC 9','LS1631166','AXLE RDC-09','CRZ45-0419-CA00'),
    (null,'M3242150','Nose Gear Axle RDC 10','LS1311333','AXLE RDC-10','CRZ34-0418-C100'),
    (null,'M3242150','Nose Gear Axle RDC 10','LS1311333','AXLE RDC-10','CRZ45-0419-CA00'),
    (null,'M3351001','Class 01 - Door 1 LH Prime WELS Control Unit','LS2130383','33 ELS WCU- DR1','BCG2F-U000-0297'),
    (null,'M3351001','Class 01 - Door 1 LH Prime WELS Control Unit"','LS2130383','33 ELS WCU- DR1','SEK54-0258-6000'),
    (null,'M3351001','Class 01 - Door 1 LH Prime WELS Control Unit','LS3722366','ELS SUMMARY','INVALID'),
    (null,'M3351001','Class 01 - Door 1 LH Prime WELS Control Unit','LS3722366','ELS SUMMARY','NOT AVAILABLE'),
    (null,'M3351004','Class 04 - Door 2 RH Fwd Prime WELS Control','LS2460403','33 ELS WCU- DR2','BCG2F-U000-0297'),
    (null,'M3351004','Class 04 - Door 2 RH Fwd Prime WELS Control','LS2460403','33 ELS WCU- DR2','SEK54-0258-6000'),
    (null,'M3351005','Class 05 - Door 3 LH Prime WELS Control Unit','LS2000432','33 ELS WCU- DR3','BCG2F-U000-0297'),
    (null,'M3351005','Class 05 - Door 3 LH Prime WELS Control Unit','LS2000432','33 ELS WCU- DR3','SEK54-0258-6000'),
    (null,'M3351008','Class 08 - Door 4 RH Pime WELS Control Unit','LS2940495','33 ELS WCU- DR4','BCG2F-U000-0297'),
    (null,'M3351008','Class 08 - Door 4 RH Pime WELS Control Unit','LS2940495','33 ELS WCU- DR4','SEK54-0258-6000'),
    (null,'M3442101','Left Integ Surveillance System Proc Unit','LS1794396','ISS-L','COL46-0007-0100'),
    (null,'M3442101','Left Integ Surveillance System Proc Unit','LS1794396','ISS-L','COL40-0010-0100'),
    (null,'M3442101','Left Integ Surveillance System Proc Unit','LS1794396','ISS-L','COL48-0008-0011'),
    (null,'M3442101','Left Integ Surveillance System Proc Unit','LS1794396','ISS-L','COL48-0009-0001'),
    (null,'M3442101','Left Integ Surveillance System Proc Unit','LS1794396','ISS-L','COL47-0005-0020'),
    (null,'M3442101','Left Integ Surveillance System Proc Unit','LS1794396','ISS-L','COL47-0006-0001'),
    (null,'M3442101','Left Integ Surveillance System Proc Unit','LS1794396','ISS-L','BCG5E-U000-01L0'),
    (null,'M3442101','Left Integ Surveillance System Proc Unit','LS1794396','ISS-L','BCG36-0000-02A3'),
    (null,'M3442201','Right Integ Surveillance System Proc Unit','LS1274421','ISS-R','COL46-0007-0100'),
    (null,'M3442201','Right Integ Surveillance System Proc Unit','LS1274421','ISS-R','COL40-0010-0100'),
    (null,'M3442201','Right Integ Surveillance System Proc Unit','LS1274421','ISS-R','COL48-0008-0011'),
    (null,'M3442201','Right Integ Surveillance System Proc Unit','LS1274421','ISS-R','COL48-0009-0001'),
    (null,'M3442201','Right Integ Surveillance System Proc Unit','LS1274421','ISS-R','COL47-0005-0020'),
    (null,'M3442201','Right Integ Surveillance System Proc Unit','LS1274421','ISS-R','COL47-0006-0001'),
    (null,'M3442201','Right Integ Surveillance System Proc Unit','LS1274421','ISS-R','BCG5E-U000-01L0'),
    (null,'M3442201','Right Integ Surveillance System Proc Unit','LS1274421','ISS-R','BCG5C-U000-01L2 '),
    (null,'E4220001M9','Left 1 General Processor Module','LS1315765','CCR GPM-L1','SMX46-5567-5307 '),
    (null,'E4220001M9','Left 1 General Processor Module','LS1315765','CCR GPM-L1','SMX4C-5560-5108'),
    (null,'E4220001M9','Left 1 General Processor Module','LS1315765','CCR GPM-L1','SMX43-5560-5017  '),
    (null,'E4220001M9','Left 1 General Processor Module','LS1315765','CCR GPM-L1','HAM47-21EE-1023'),
    (null,'E4220001M9','Left 1 General Processor Module','LS1315765','CCR GPM-L1','HAM51-21CS-1043'),
    (null,'E4220001M9','Left 1 General Processor Module','LS1315765','CCR GPM-L1','BCG49-CCS0-00T8'),
    (null,'E4220001M9','Left 1 General Processor Module','LS1315765','CCR GPM-L1','HAM52-21PE-1023'),
    (null,'E4220001M9','Left 1 General Processor Module','LS1315765','CCR GPM-L1','BCG45-U000-01T3'),
    (null,'E4220001M9','Left 1 General Processor Module','LS1315765','CCR GPM-L1','HAM4C-0700-6810'),
    (null,'E4220001M9','Left 1 General Processor Module','LS1315765','CCR GPM-L1','HAM46-0700-7002'),
    (null,'E4220001M9','Left 1 General Processor Module','LS1315765','CCR GPM-L1','HAM40-0700-6063'),
    (null,'E4220001M9','Left 1 General Processor Module','LS1315765','CCR GPM-L1','KTI28-4043-79A2'),
    (null,'E4220001M9','Left 1 General Processor Module','LS1315765','CCR GPM-L1','GRH56-0119-6105'),
    (null,'E4220001M9','Left 1 General Processor Module','LS1315765','CCR GPM-L1','PBA54-6172-0005'),
    (null,'E4220001M9','Left 1 General Processor Module','LS1315765','CCR GPM-L1','HAM46-0700-6047'),
    (null,'E4220001M9','Left 1 General Processor Module','LS1315765','CCR GPM-L1','HAM52-30WE-0061'),
    (null,'E4220001M9','Left 1 General Processor Module','LS1315765','CCR GPM-L1','SMC47-01NT-0100'),
    (null,'E4220001M9','Left 1 General Processor Module','LS1315765','CCR GPM-L1','SMC51-01NA-0200'),
    (null,'E4220001M9','Left 1 General Processor Module','LS1315765','CCR GPM-L1','BCG21-U000-0002'),
    (null,'E4220001M9','Left 1 General Processor Module','LS1315765','CCR GPM-L1','HNP5B-AL33-5005'),
    (null,'E4220001M9','Left 1 General Processor Module','LS1315765','CCR GPM-L1','BCG3A-PMT0-0005'),
    (null,'E4220001M9','Left 1 General Processor Module','LS1315765','CCR GPM-L1','GRH52-0119-5201'),
    (null,'E4220001M8','Left 2 General Processor Module','LS1755836','CCR GPM-L2','SMX46-5567-5307 '),
    (null,'E4220001M8','Left 2 General Processor Module','LS1755836','CCR GPM-L2','SMX4F-5560-5208'),
    (null,'E4220001M8','Left 2 General Processor Module','LS1755836','CCR GPM-L2','SMX43-5560-5017  '),
    (null,'E4220001M8','Left 2 General Processor Module','LS1755836','CCR GPM-L2','BCG49-CCS0-00T8'),
    (null,'E4220001M8','Left 2 General Processor Module','LS1755836','CCR GPM-L2','COL45-0014-0022 '),
    (null,'E4220001M8','Left 2 General Processor Module','LS1755836','CCR GPM-L2','BCG24-0000-02S3'),
    (null,'E4220001M8','Left 2 General Processor Module','LS1755836','CCR GPM-L2','BCG20-U000-0003'),
    (null,'E4220001M7','Left 3 General Processor Module','LS1346049','CCR GPM-L3','SMX46-5567-5307 '),
    (null,'E4220001M7','Left 3 General Processor Module','LS1346049','CCR GPM-L3','SMX4E-5560-5308'),
    (null,'E4220001M7','Left 3 General Processor Module','LS1346049','CCR GPM-L3','SMX43-5560-5017  '),
    (null,'E4220001M7','Left 3 General Processor Module','LS1346049','CCR GPM-L3','BCG49-CCS0-00T8'),
    (null,'E4220001M7','Left 3 General Processor Module','LS1346049','CCR GPM-L3','COL45-0014-0022 '),
    (null,'E4220001M7','Left 3 General Processor Module','LS1346049','CCR GPM-L3','BCG24-0000-02S3'),
    (null,'E4220001M7','Left 3 General Processor Module','LS1346049','CCR GPM-L3','BCG27-U000-0004'),
    (null,'E4220001M6','Left 4 General Processor Module','LS1856054','CCR GPM-L4','SMX46-5567-5307 '),
    (null,'E4220001M6','Left 4 General Processor Module','LS1856054','CCR GPM-L4','SMX49-5560-5408'),
    (null,'E4220001M6','Left 4 General Processor Module','LS1856054','CCR GPM-L4','SMX43-5560-5017  '),
    (null,'E4220001M6','Left 4 General Processor Module','LS1856054','CCR GPM-L4','HAM46-21CA-1013'),
    (null,'E4220001M6','Left 4 General Processor Module','LS1856054','CCR GPM-L4','HAM5B-21LP-1010'),
    (null,'E4220001M6','Left 4 General Processor Module','LS1856054','CCR GPM-L4','BCG49-CCS0-00T8'),
    (null,'E4220001M6','Left 4 General Processor Module','LS1856054','CCR GPM-L4','BCG45-U000-01T3'),
    (null,'E4220001M6','Left 4 General Processor Module','LS1856054','CCR GPM-L4','HAM4C-0700-6810'),
    (null,'E4220001M6','Left 4 General Processor Module','LS1856054','CCR GPM-L4','HAM46-0700-7002'),
    (null,'E4220001M6','Left 4 General Processor Module','LS1856054','CCR GPM-L4','HAM40-0700-6063'),
    (null,'E4220001M6','Left 4 General Processor Module','LS1856054','CCR GPM-L4','PBA54-6172-0005'),
    (null,'E4220001M6','Left 4 General Processor Module','LS1856054','CCR GPM-L4','HAM49-0700-6048'),
    (null,'E4220001M6','Left 4 General Processor Module','LS1856054','CCR GPM-L4','COL45-0014-0022'),
    (null,'E4220001M6','Left 4 General Processor Module','LS1856054','CCR GPM-L4','BFT27-8000-01L2'),
    (null,'E4220001M6','Left 4 General Processor Module','LS1856054','CCR GPM-L4','BFT57-0000-0052'),
    (null,'E4220001M6','Left 4 General Processor Module','LS1856054','CCR GPM-L4','BCG26-U000-0005'),
    (null,'E4220001M6','Left 4 General Processor Module','LS1856054','CCR GPM-L4','HNP5B-AL33-5005'),
    (null,'E4220001M6','Left 4 General Processor Module','LS1856054','CCR GPM-L4','BCG3A-PMT0-0005 '),
    (null,'E4220001M5','Left 5 General Processor Module','LS1876125','CCR GPM-L5','SMX46-5567-5307 '),
    (null,'E4220001M5','Left 5 General Processor Module','LS1876125','CCR GPM-L5','SMX48-5560-5508'),
    (null,'E4220001M5','Left 5 General Processor Module','LS1876125','CCR GPM-L5','SMX43-5560-5017  '),
    (null,'E4220001M5','Left 5 General Processor Module','LS1876125','CCR GPM-L5','BCG49-CCS0-00T8'),
    (null,'E4220001M5','Left 5 General Processor Module','LS1876125','CCR GPM-L5','BCG48-U000-00X3'),
    (null,'E4220001M5','Left 5 General Processor Module','LS1876125','CCR GPM-L5','BSM2C-F060-0000'),
    (null,'E4220001M5','Left 5 General Processor Module','LS1876125','CCR GPM-L5','HNP57-AL11-5009'),
    (null,'E4220001M5','Left 5 General Processor Module','LS1876125','CCR GPM-L5','HNP4A-RM51-1710  '),
    (null,'E4220001M5','Left 5 General Processor Module','LS1876125','CCR GPM-L5','HNP5A-AL12-5007'),
    (null,'E4220001M5','Left 5 General Processor Module','LS1876125','CCR GPM-L5','BCG25-U000-0006'),
    (null,'E4220001M5','Left 5 General Processor Module','LS1876125','CCR GPM-L5','HNP5B-AL33-5005'),
    (null,'E4220001M5','Left 5 General Processor Module','LS1876125','CCR GPM-L5','BCG3A-PMT0-0005'),
    (null,'E4220001M4','Left 6 General Processor Module','LS1436233','CCR GPM-L6','SMX46-5567-5307 '),
    (null,'E4220001M4','Left 6 General Processor Module','LS1436233','CCR GPM-L6','SMX4B-5560-5608'),
    (null,'E4220001M4','Left 6 General Processor Module','LS1436233','CCR GPM-L6','SMX43-5560-5017  '),
    (null,'E4220001M4','Left 6 General Processor Module','LS1436233','CCR GPM-L6','BCG49-CCS0-00T8'),
    (null,'E4220001M4','Left 6 General Processor Module','LS1436233','CCR GPM-L6','KOR5B-4192-0102'),
    (null,'E4220001M4','Left 6 General Processor Module','LS1436233','CCR GPM-L6','KTI28-4043-79A2'),
    (null,'E4220001M4','Left 6 General Processor Module','LS1436233','CCR GPM-L6','GRH56-0119-6105'),
    (null,'E4220001M4','Left 6 General Processor Module','LS1436233','CCR GPM-L6','HAM49-0700-6048'),
    (null,'E4220001M4','Left 6 General Processor Module','LS1436233','CCR GPM-L6','HAM46-0700-6047'),
    (null,'E4220001M4','Left 6 General Processor Module','LS1436233','CCR GPM-L6','BCG48-U000-00X3'),
    (null,'E4220001M4','Left 6 General Processor Module','LS1436233','CCR GPM-L6','BSM2C-F060-0000'),
    (null,'E4220001M4','Left 6 General Processor Module','LS1436233','CCR GPM-L6','HNP57-AL11-5009'),
    (null,'E4220001M4','Left 6 General Processor Module','LS1436233','CCR GPM-L6','HNP4A-RM51-1710'),
    (null,'E4220001M4','Left 6 General Processor Module','LS1436233','CCR GPM-L6','BCG24-U000-0007'),
    (null,'E4220001M4','Left 6 General Processor Module','LS1436233','CCR GPM-L6','HNP5B-AL33-5005'),
    (null,'E4220001M4','Left 6 General Processor Module','LS1436233','CCR GPM-L6','BCG3A-PMT0-0005 '),
    (null,'E4220001M3','Left 7 General Processor Module','LS1696327','CCR GPM-L7','SMX46-5567-5307 '),
    (null,'E4220001M3','Left 7 General Processor Module','LS1696327','CCR GPM-L7','SMX4A-5560-5708'),
    (null,'E4220001M3','Left 7 General Processor Module','LS1696327','CCR GPM-L7','SMX43-5560-5017  '),
    (null,'E4220001M3','Left 7 General Processor Module','LS1696327','CCR GPM-L7','BCG49-CCS0-00T8'),
    (null,'E4220001M3','Left 7 General Processor Module','LS1696327','CCR GPM-L7','SMC49-01CT-0200'),
    (null,'E4220001M3','Left 7 General Processor Module','LS1696327','CCR GPM-L7','SMC5D-01CA-0300'),
    (null,'E4220001M3','Left 7 General Processor Module','LS1696327','CCR GPM-L7','BCG2B-U000-0008'),
    (null,'E4220001M3','Left 7 General Processor Module','LS1696327','CCR GPM-L7','BCG37-0000-01F6'),
    (null,'E4220001M3','Left 7 General Processor Module','LS1696327','CCR GPM-L7','BCG42-45LD-0049'),
    (null,'E4220001M3','Left 7 General Processor Module','LS1696327','CCR GPM-L7','HNP5B-AL32-5004'),
    (null,'E4220001M3','Left 7 General Processor Module','LS1696327','CCR GPM-L7','HNP5B-AL33-5005'),
    (null,'E4220001M3','Left 7 General Processor Module','LS1696327','CCR GPM-L7','BCG3A-PMT0-0005'),
    (null,'E4220001M3','Left 7 General Processor Module','LS1696327','CCR GPM-L7','GRH53-0119-5103'),
    (null,'E4220001M2','Left 8 General Processor Module','LS1966348','CCR GPM-L8','SMX46-5567-5307'),
    (null,'E4220001M2','Left 8 General Processor Module','LS1966348','CCR GPM-L8','SMX45-5560-5808'),
    (null,'E4220001M2','Left 8 General Processor Module','LS1966348','CCR GPM-L8','SMX43-5560-5017  '),
    (null,'E4220001M2','Left 8 General Processor Module','LS1966348','CCR GPM-L8','BCG49-CCS0-00T8'),
    (null,'E4220001M2','Left 8 General Processor Module','LS1966348','CCR GPM-L8','BSM2F-D099-0034'),
    (null,'E4220001M2','Left 8 General Processor Module','LS1966348','CCR GPM-L8','HNP55-AD23-5002'),
    (null,'E4220001M2','Left 8 General Processor Module','LS1966348','CCR GPM-L8','HNP5B-AL21-5006'),
    (null,'E4220001M2','Left 8 General Processor Module','LS1966348','CCR GPM-L8','HAM41-0700-6062'),
    (null,'E4220001M2','Left 8 General Processor Module','LS1966348','CCR GPM-L8','BCG45-U000-01T3'),
    (null,'E4220001M2','Left 8 General Processor Module','LS1966348','CCR GPM-L8','HAM46-0700-7002'),
    (null,'E4220001M2','Left 8 General Processor Module','LS1966348','CCR GPM-L8','KTI28-4044-83A0'),
    (null,'E4220001M2','Left 8 General Processor Module','LS1966348','CCR GPM-L8','BCG2A-U000-0009'),
    (null,'E4220001M2','Left 8 General Processor Module','LS1966348','CCR GPM-L8','HNP5B-AL33-5005'),
    (null,'E4220001M2','Left 8 General Processor Module','LS1966348','CCR GPM-L8','BCG3A-PMT0-0005'),
    (null,'E4220002M9','Right 1 General Processor Module','LS1506582','CCR GPM-R1','SMX46-5567-5307'),
    (null,'E4220002M9','Right 1 General Processor Module','LS1506582','CCR GPM-R1','SMX44-5560-5908'),
    (null,'E4220002M9','Right 1 General Processor Module','LS1506582','CCR GPM-R1','SMX43-5560-5017'),
    (null,'E4220002M9','Right 1 General Processor Module','LS1506582','CCR GPM-R1','HAM47-21EE-1023'),
    (null,'E4220002M9','Right 1 General Processor Module','LS1506582','CCR GPM-R1','BCG49-CCS0-00T8'),
    (null,'E4220002M9','Right 1 General Processor Module','LS1506582','CCR GPM-R1','BCG45-U000-01T3'),
    (null,'E4220002M9','Right 1 General Processor Module','LS1506582','CCR GPM-R1','HAM4C-0700-6810'),
    (null,'E4220002M9','Right 1 General Processor Module','LS1506582','CCR GPM-R1','HAM46-0700-7002'),
    (null,'E4220002M9','Right 1 General Processor Module','LS1506582','CCR GPM-R1','HAM40-0700-6063'),
    (null,'E4220002M9','Right 1 General Processor Module','LS1506582','CCR GPM-R1','KTI28-4044-83A0'),
    (null,'E4220002M9','Right 1 General Processor Module','LS1506582','CCR GPM-R1','KTI28-4043-79A2'),
    (null,'E4220002M9','Right 1 General Processor Module','LS1506582','CCR GPM-R1','GRH56-0119-6105'),
    (null,'E4220002M9','Right 1 General Processor Module','LS1506582','CCR GPM-R1','HAM52-30WE-0061'),
    (null,'E4220002M9','Right 1 General Processor Module','LS1506582','CCR GPM-R1','SMC47-01NT-0100'),
    (null,'E4220002M9','Right 1 General Processor Module','LS1506582','CCR GPM-R1','SMC51-01NA-0200'),
    (null,'E4220002M9','Right 1 General Processor Module','LS1506582','CCR GPM-R1','MSG5D-0001-0050'),
    (null,'E4220002M9','Right 1 General Processor Module','LS1506582','CCR GPM-R1','MSG59-0002-0020'),
    (null,'E4220002M9','Right 1 General Processor Module','LS1506582','CCR GPM-R1','BCG22-U000-0010'),
    (null,'E4220002M9','Right 1 General Processor Module','LS1506582','CCR GPM-R1','BCG4D-ACMF-GE22'),
    (null,'E4220002M9','Right 1 General Processor Module','LS1506582','CCR GPM-R1','HNP59-AL31-5005'),
    (null,'E4220002M9','Right 1 General Processor Module','LS1506582','CCR GPM-R1','HNP5B-AL33-5005'),
    (null,'E4220002M9','Right 1 General Processor Module','LS1506582','CCR GPM-R1','BCG3A-PMT0-0005'),
    (null,'E4220002M9','Right 1 General Processor Module','LS1506582','CCR GPM-R1','GRH52-0119-5201'),
    (null,'E4220002M9','Right 1 General Processor Module','LS1506582','CCR GPM-R1','GRH50-0119-5302'),
    (null,'E4220002M8','Right 2 General Processor Module','LS1756643','CCR GPM-R2','SMX46-5567-5307 '),
    (null,'E4220002M8','Right 2 General Processor Module','LS1756643','CCR GPM-R2','SMX4E-5560-6008'),
    (null,'E4220002M8','Right 2 General Processor Module','LS1756643','CCR GPM-R2','SMX43-5560-5017'),
    (null,'E4220002M8','Right 2 General Processor Module','LS1756643','CCR GPM-R2','BCG49-CCS0-00T8'),
    (null,'E4220002M8','Right 2 General Processor Module','LS1756643','CCR GPM-R2','COL45-0014-0022'),
    (null,'E4220002M8','Right 2 General Processor Module','LS1756643','CCR GPM-R2','BCG24-0000-02S3'),
    (null,'E4220002M8','Right 2 General Processor Module','LS1756643','CCR GPM-R2','BCG23-U000-0011'),
    (null,'E4220002M8','Right 2 General Processor Module','LS1756643','CCR GPM-R2','HNP5B-AL33-5005'),
    (null,'E4220002M8','Right 2 General Processor Module','LS1756643','CCR GPM-R2','BCG3A-PMT0-0005'),
    (null,'E4220002M7','Right 3 General Processor Module','LS1126751','CCR GPM-R3','SMX46-5567-5307'),
    (null,'E4220002M7','Right 3 General Processor Module','LS1126751','CCR GPM-R3','SMX4F-5560-6108'),
    (null,'E4220002M7','Right 3 General Processor Module','LS1126751','CCR GPM-R3','SMX43-5560-5017'),
    (null,'E4220002M7','Right 3 General Processor Module','LS1126751','CCR GPM-R3','BCG49-CCS0-00T8'),
    (null,'E4220002M7','Right 3 General Processor Module','LS1126751','CCR GPM-R3','COL45-0014-0022 '),
    (null,'E4220002M7','Right 3 General Processor Module','LS1126751','CCR GPM-R3','BCG24-0000-02S3'),
    (null,'E4220002M7','Right 3 General Processor Module','LS1126751','CCR GPM-R3','BCG20-U000-0012'),
    (null,'E4220002M6','Right 4 General Processor Module','LS1086863','CCR GPM-R4','SMX46-5567-5307'),
    (null,'E4220002M6','Right 4 General Processor Module','LS1086863','CCR GPM-R4','SMX4C-5560-6208'),
    (null,'E4220002M6','Right 4 General Processor Module','LS1086863','CCR GPM-R4','SMX43-5560-5017'),
    (null,'E4220002M6','Right 4 General Processor Module','LS1086863','CCR GPM-R4','BCG49-CCS0-00T8'),
    (null,'E4220002M6','Right 4 General Processor Module','LS1086863','CCR GPM-R4','HAM52-21PE-1023'),
    (null,'E4220002M6','Right 4 General Processor Module','LS1086863','CCR GPM-R4','PBA55-6172-0004');
INSERT INTO library VALUES
    (null,'E4220002M6','Right 4 General Processor Module','LS1086863','CCR GPM-R4','HAM46-0700-6047'),
    (null,'E4220002M6','Right 4 General Processor Module','LS1086863','CCR GPM-R4','BCG21-U000-0013'),
    (null,'E4220002M6','Right 4 General Processor Module','LS1086863','CCR GPM-R4','HNP5B-AL33-5005'),
    (null,'E4220002M6','Right 4 General Processor Module','LS1086863','CCR GPM-R4','BCG3A-PMT0-0005'),
    (null,'E4220002M6','Right 4 General Processor Module','LS1086863','CCR GPM-R4','HAM4A-47NG-0040'),
    (null,'E4220002M6','Right 4 General Processor Module','LS1086863','CCR GPM-R4','GRH53-0119-5103'),
    (null,'E4220002M5','Right 5 General Processor Module','LS1466884','CCR GPM-R5','SMX46-5567-5307'),
    (null,'E4220002M5','Right 5 General Processor Module','LS1466884','CCR GPM-R5','SMX4D-5560-6308'),
    (null,'E4220002M5','Right 5 General Processor Module','LS1466884','CCR GPM-R5','SMX43-5560-5017'),
    (null,'E4220002M5','Right 5 General Processor Module','LS1466884','CCR GPM-R5','BCG49-CCS0-00T8'),
    (null,'E4220002M5','Right 5 General Processor Module','LS1466884','CCR GPM-R5','HAM49-0700-6048'),
    (null,'E4220002M5','Right 5 General Processor Module','LS1466884','CCR GPM-R5','BCG48-U000-00X3'),
    (null,'E4220002M5','Right 5 General Processor Module','LS1466884','CCR GPM-R5','BSM2C-F060-0000'),
    (null,'E4220002M5','Right 5 General Processor Module','LS1466884','CCR GPM-R5','HNP57-AL11-5009'),
    (null,'E4220002M5','Right 5 General Processor Module','LS1466884','CCR GPM-R5','HNP4A-RM51-1710'),
    (null,'E4220002M5','Right 5 General Processor Module','LS1466884','CCR GPM-R5','HNP5A-AL12-5007'),
    (null,'E4220002M5','Right 5 General Processor Module','LS1466884','CCR GPM-R5','BCG26-U000-0014'),
    (null,'E4220002M5','Right 5 General Processor Module','LS1466884','CCR GPM-R5','HNP5B-AL33-5005'),
    (null,'E4220002M5','Right 5 General Processor Module','LS1466884','CCR GPM-R5','BCG3A-PMT0-0005'),
    (null,'E4220002M4','Right 6 General Processor Module','LS1216996','CCR GPM-R6','SMX46-5567-5307 '),
    (null,'E4220002M4','Right 6 General Processor Module','LS1216996','CCR GPM-R6','SMX4A-5560-6408'),
    (null,'E4220002M4','Right 6 General Processor Module','LS1216996','CCR GPM-R6','SMX43-5560-5017  '),
    (null,'E4220002M4','Right 6 General Processor Module','LS1216996','CCR GPM-R6','HAM56-21CS-1033'),
    (null,'E4220002M4','Right 6 General Processor Module','LS1216996','CCR GPM-R6','HAM5B-21LP-1010'),
    (null,'E4220002M4','Right 6 General Processor Module','LS1216996','CCR GPM-R6','BCG49-CCS0-00T8'),
    (null,'E4220002M4','Right 6 General Processor Module','LS1216996','CCR GPM-R6','KOR5B-4192-0102'),
    (null,'E4220002M4','Right 6 General Processor Module','LS1216996','CCR GPM-R6','HAM41-0700-6062'),
    (null,'E4220002M4','Right 6 General Processor Module','LS1216996','CCR GPM-R6','BCG45-U000-01T3'),
    (null,'E4220002M4','Right 6 General Processor Module','LS1216996','CCR GPM-R6','HAM46-0700-7002'),
    (null,'E4220002M4','Right 6 General Processor Module','LS1216996','CCR GPM-R6','COL45-0014-0022 '),
    (null,'E4220002M4','Right 6 General Processor Module','LS1216996','CCR GPM-R6','BFT27-8000-01L2 '),
    (null,'E4220002M4','Right 6 General Processor Module','LS1216996','CCR GPM-R6','BFT57-0000-0052'),
    (null,'E4220002M4','Right 6 General Processor Module','LS1216996','CCR GPM-R6','SMC41-01HT-0100'),
    (null,'E4220002M4','Right 6 General Processor Module','LS1216996','CCR GPM-R6','SMC57-01HA-0200'),
    (null,'E4220002M4','Right 6 General Processor Module','LS1216996','CCR GPM-R6','MSG5D-0001-0050'),
    (null,'E4220002M4','Right 6 General Processor Module','LS1216996','CCR GPM-R6','BCG27-U000-0015'),
    (null,'E4220002M4','Right 6 General Processor Module','LS1216996','CCR GPM-R6','HNP5B-AL33-5005'),
    (null,'E4220002M4','Right 6 General Processor Module','LS1216996','CCR GPM-R6','BCG3A-PMT0-0005'),
    (null,'E4220002M3','Right 7 General Processor Module','LS1267201','CCR GPM-R7','SMX46-5567-5307 '),
    (null,'E4220002M3','Right 7 General Processor Module','LS1267201','CCR GPM-R7','SMX4B-5560-6508'),
    (null,'E4220002M3','Right 7 General Processor Module','LS1267201','CCR GPM-R7','SMX43-5560-5017  '),
    (null,'E4220002M3','Right 7 General Processor Module','LS1267201','CCR GPM-R7','BCG49-CCS0-00T8'),
    (null,'E4220002M3','Right 7 General Processor Module','LS1267201','CCR GPM-R7','SMC49-01CT-0200'),
    (null,'E4220002M3','Right 7 General Processor Module','LS1267201','CCR GPM-R7','SMC5D-01CA-0300'),
    (null,'E4220002M3','Right 7 General Processor Module','LS1267201','CCR GPM-R7','BCG24-U000-0016'),
    (null,'E4220002M3','Right 7 General Processor Module','LS1267201','CCR GPM-R7','BCG37-0000-01F6'),
    (null,'E4220002M3','Right 7 General Processor Module','LS1267201','CCR GPM-R7',' BCG42-45LD-0049'),
    (null,'E4220002M3','Right 7 General Processor Module','LS1267201','CCR GPM-R7','HNP5B-AL32-5004'),
    (null,'E4220002M3','Right 7 General Processor Module','LS1267201','CCR GPM-R7','HNP5B-AL33-5005'),
    (null,'E4220002M3','Right 7 General Processor Module','LS1267201','CCR GPM-R7','BCG3A-PMT0-0005'),
    (null,'E4220002M2','Right 8 General Processor Module','LS1687273','CCR GPM-R8','SMX46-5567-5307 '),
    (null,'E4220002M2','Right 8 General Processor Module','LS1687273','CCR GPM-R8','SMX48-5560-6608'),
    (null,'E4220002M2','Right 8 General Processor Module','LS1687273','CCR GPM-R8','SMX43-5560-5017  '),
    (null,'E4220002M2','Right 8 General Processor Module','LS1687273','CCR GPM-R8','BCG49-CCS0-00T8'),
    (null,'E4220002M2','Right 8 General Processor Module','LS1687273','CCR GPM-R8','BSM2F-D099-0034'),
    (null,'E4220002M2','Right 8 General Processor Module','LS1687273','CCR GPM-R8','HNP55-AD23-5002'),
    (null,'E4220002M2','Right 8 General Processor Module','LS1687273','CCR GPM-R8','HNP5B-AL21-5006'),
    (null,'E4220002M2','Right 8 General Processor Module','LS1687273','CCR GPM-R8','BCG25-U000-0017'),
    (null,'E4220002M2','Right 8 General Processor Module','LS1687273','CCR GPM-R8','HNP5B-AL33-5005'),
    (null,'E4220002M2','Right 8 General Processor Module','LS1687273','CCR GPM-R8','BCG3A-PMT0-0005'),
    (null,'E4220001M15','Left A CCR Cabinet ARINC 664 Switch','LS2590186','CCR ACS-L CH A','SMX4F-5560-6801'),
    (null,'E4220001M15','Left A CCR Cabinet ARINC 664 Switch','LS2590186','CCR ACS-L CH A','SMX49-5560-6906'),
    (null,'E4220001M13','Left B CCR Cabinet ARINC 664 Switch','LS2640282','CCR ACS-L CH B','SMX4F-5560-6801'),
    (null,'E4220001M13','Left B CCR Cabinet ARINC 664 Switch','LS2640282','CCR ACS-L CH B','SMX49-5560-6906'),
    (null,'E4220002M15','Right A CCR Cabinet ARINC 664 Switch','LS2390297','CCR ACS-R CH A','SMX4F-5560-6801'),
    (null,'E4220002M15','Right A CCR Cabinet ARINC 664 Switch','LS2390297','CCR ACS-R CH A','SMX49-5560-6906'),
    (null,'E4220002M13','Right B CCR Cabinet ARINC 664 Switch','LS2870324','CCR ACS-R CH B','SMX4F-5560-6801'),
    (null,'E4220002M13','Right B CCR Cabinet ARINC 664 Switch','LS2870324','CCR ACS-R CH B','SMX49-5560-6906'),
    (null,'M4230003','Left Aft Cheek ARINC 664 Remote Switch 3','LS2925442','ARS-AFT CHEEK-L','SMX4F-5560-6801'),
    (null,'M4230003','Left Aft Cheek ARINC 664 Remote Switch 3','LS2925442','ARS-AFT CHEEK-L','SMX49-5560-6906'),
    (null,'M4230004','Right CCS-Crown-Dr3 Network Switch 4','LS2620111','ARS-CROWN DR3-R','SMX4F-5560-6801'),
    (null,'M4230004','Right CCS-Crown-Dr3 Network Switch 4','LS2620111','ARS-CROWN DR3-R',' SMX49-5560- 6906'),
    (null,'M4230005','Left CCS-Forward EE Bay Network Switch 5','LS1289924','ARS-FWD EE BAY-L','SMX4F-5560-6801'),
    (null,'M4230005','Left CCS-Forward EE Bay Network Switch 5','LS1289924','ARS-FWD EE BAY-L','SMX49-5560-6906'),
    (null,'M4230006','Right CCS-Forward EE Bay Network Switch 6','LS2820056','ARS-FWD EE BAY-R','SMX4F-5560-6801'),
    (null,'M4230006','Right CCS-Forward EE Bay Network Switch 6','LS2820056','ARS-FWD EE BAY-R',' SMX49-5560- 6906'),
    (null,'M4230007','Left CCS-Crown-Dr3 Network Switch 7','LS2360042','ARS-CROWN DR3-L','SMX49-5560-6906'),
    (null,'M4230008','Aft EE Bay-R ARINC 664 Remote Switch 8','LS2340133','ARS-AFT EE BAY-R','SMX4F-5560-6801'),
    (null,'M4230008','Aft EE Bay-R ARINC 664 Remote Switch 8','LS2340133','ARS-AFT EE BAY-R',' SMX49-5560- 6906'),
    (null,'M4240001','Fwd EE Bay-1L CCS RDC 01','LS1907427','RDC-01','SMX45-5560-6715'),
    (null,'M4240002','Fwd EE Bay-1R CCS RDC 02','LS1287692','RDC-02','SMX45-5560-6715'),
    (null,'M4240003','Fwd EE Bay-2L CCS  RDC 03','LS1227735','RDC-03','SMX45-5560-6715'),
    (null,'M4240004','Fwd EE Bay-2R CCS RDC 04','LS1617798','RDC-04','SMX45-5560-6715'),
    (null,'M4240005','Crown Dr 3-2L CCS  RDC 05','LS1707808','RDC-05','SMX45-5560-6715'),
    (null,'M4240006','Crown Dr 3-2R CCS RDC 06','LS1397902','RDC-06','SMX45-5560-6715'),
    (null,'M4240007','Aft EE Bay-L CCS RDC 07','LS1727979','RDC-07','SMX45-5560-6715'),
    (null,'M4240008','Aft EE Bay-R CCS RDC 08','LS1188085','RDC-08','SMX45-5560-6715'),
    (null,'M4240009','Crown Dr 3-1L CCS  RDC 09','LS1748135','RDC-09','SMX45-5560-6715'),
    (null,'M4240010','Crown Dr 3-1R CCS RDC 10','LS1098193','RDC-10','SMX45-5560-6715'),
    (null,'M4240011','Flight Deck L CCS RDC 11','LS1828424','RDC-11','SMX45-5560-6715'),
    (null,'M4240012','Flight Deck R CCS  RDC 12','LS1008478','RDC-12','SMX45-5560-6715'),
    (null,'M4240013','Crown Dr 1L CCS RDC 13','LS1028509','RDC-13','SMX45-5560-6715'),
    (null,'M4240014','Crown Dr 1R CCS RDC 14','LS1308736','RDC-14','SMX45-5560-6715'),
    (null,'M4240015','Crown Dr 2L CCS RDC 15','LS1088740','RDC-15','SMX45-5560-6715'),
    (null,'M4240016','Crown Dr 2R CCS  RDC 16','LS1338951','RDC-16','SMX45-5560-6715'),
    (null,'M4240017','Crown Dr 4L CCS RDC 17','LS1079169','RDC-17','SMX45-5560-6715'),
    (null,'M4240018','Crown Dr 4R CCS RDC 18','LS1099681','RDC-18','SMX45-5560-6715'),
    (null,'M4240019','Aft EE Bay CCS RDC 19','LS1559704','RDC-19','SMX45-5560-6715'),
    (null,'M4240021','Crown Dr 2-2L CCS RDC 21','LS1879792','RDC-21','SMX45-5560-6715'),
    (null,'M4240023','Crown Dr 4-2L CCS RDC 23','LS1969802','RDC-23','SMX45-5560-6715'),
    (null,'M-CSS','CABIN SERVICES SYSTEM','LS1743341','CSS','MEI41-0000-0110'),
    (null,'M-CSS','CABIN SERVICES SYSTEM','LS1743341','CSS','MEI44-0000-0207'),
    (null,'M-CSS','CABIN SERVICES SYSTEM','LS1743341','CSS','MEI44-0000-0306'),
    (null,'M-CSS','CABIN SERVICES SYSTEM','LS1743341','CSS','MEI44-0000-0410'),
    (null,'M-CSS','CABIN SERVICES SYSTEM','LS1743341','CSS','MEI40-0000-0504'),
    (null,'M-CSS','CABIN SERVICES SYSTEM','LS1743341','CSS','MEI42-0000-0605'),
    (null,'M-CSS','CABIN SERVICES SYSTEM','LS1743341','CSS','DLE43-LAXX-0003'),
    (null,'M-CSS','CABIN SERVICES SYSTEM','LS1743341','CSS','DLE5C-LARM-0003'),
    (null,'M-CSS','CABIN SERVICES SYSTEM','LS1743341','CSS','DLE42-LARS-0003'),
    (null,'M-CSS','CABIN SERVICES SYSTEM','LS1743341','CSS','GNT57-0316-4903'),
    (null,'M-CSS','CABIN SERVICES SYSTEM','LS1743341','CSS','LUM56-9084-1701'),
    (null,'M-CSS','CABIN SERVICES SYSTEM','LS1743341','CSS','CDB21-8RAM-0002'),
    (null,'M-CSS','CABIN SERVICES SYSTEM','LS1743341','CSS','CDB37-8HDB-0015'),
    (null,'M-CSS','CABIN SERVICES SYSTEM','LS1743341','CSS','LDB24-8TBC-0003'),
    (null,'M4612001','CIS MS File Server Module 1','LS1205130','CIS MS FSM-1','HNP5C-AL52-5005'),
    (null,'M4612001','CIS MS File Server Module 1','LS1205130','CIS MS FSM-1','HNP59-AL51-5003'),
    (null,'M4612001','CIS MS File Server Module 1','LS1205130','CIS MS FSM-1','HNP5B-AL53-5003'),
    (null,'M4612001','CIS MS File Server Module 1','LS1205130','CIS MS FSM-1','HNP5C-AL54-5003'),
    (null,'M4612001','CIS MS File Server Module 1','LS1205130','CIS MS FSM-1','HNP5D-AL55-5003'),
    (null,'M4612001','CIS MS File Server Module 1','LS1205130','CIS MS FSM-1','BCG49-0000-0438'),
    (null,'M4612001','CIS MS File Server Module 1','LS1205130','CIS MS FSM-1','RAM2F-CSS1-0003'),
    (null,'M4612001','CIS MS File Server Module 1','LS1205130','CIS MS FSM-1','RAM34-APL1-0006'),
    (null,'M4612001','CIS MS File Server Module 1','LS1205130','CIS MS FSM-1',' BCG42-45LD-0049'),
    (null,'M4612010','CIS MS File Server Module 2','LS1455153','CIS MS FSM-2','HNP5C-AL52-5005'),
    (null,'M4612010','CIS MS File Server Module 2','LS1455153','CIS MS FSM-2','HNP59-AL51-5003'),
    (null,'M4612010','CIS MS File Server Module 2','LS1455153','CIS MS FSM-2','HNP5B-AL53-5003'),
    (null,'M4612010','CIS MS File Server Module 2','LS1455153','CIS MS FSM-2','HNP5C-AL54-5003'),
    (null,'M4612010','CIS MS File Server Module 2','LS1455153','CIS MS FSM-2','HNP5D-AL55-5003'),
    (null,'M4612010','CIS MS File Server Module 2','LS1455153','CIS MS FSM-2','BCG49-0000-0438'),
    (null,'M4612010','CIS MS File Server Module 2','LS1455153','CIS MS FSM-2','RAM2E-CSS1-0002'),
    (null,'M4612010','CIS MS File Server Module 2','LS1455153','CIS MS FSM-2','BCG36-0000-01D5'),
    (null,'M4612010','CIS MS File Server Module 2','LS1455153','CIS MS FSM-2',' BCG49-45LD-  0042'),
    (null,'M4611001','TWLU Module','LS1735260','CIS TWLU','HNR5A-AL62-5002'),
    (null,'M4612003','Forward Cabin CWLU Module','LS1885303','CIS CWLU-FWD CAB','HNR5A-AL61-5001'),
    (null,'M4612005','Aft Cabin CWLU Module','LS1155277','CIS CWLU-AFT CAB','HNR5A-AL61-5001'),
    (null,'M4612016','Forward Cargo CWLU Module','LS2816395','CIS CWLU-FWD CAR','HNR5A-AL61-5001'),
    (null,'M4612011','Aft Cargo CWLU Module','LS2746126','CIS CWLU-AFT CAR','HNR5A-AL61-5001'),
    (null,'M4612012','External CWLU Module','LS2076586','CIS CWLU-AFT EXT','HNR5A-AL61-5001'),
    (null,'M4611005','Captain`s EFB Electronics and Display Units','LS1825572','EFB-CAPT','ROZ4B-V01P-8003'),
    (null,'M4611005','Captain`s EFB Electronics and Display Units','LS1825572','EFB-CAPT','ROZ48-V01S-8003'),
    (null,'M4611005','Captain`s EFB Electronics and Display Units','LS1825572','EFB-CAPT','ROZ58-V01C-8003'),
    (null,'M4611005','Captain`s EFB Electronics and Display Units','LS1825572','EFB-CAPT','COL47-0017-0001'),
    (null,'M4611005','Captain`s EFB Electronics and Display Units','LS1825572','EFB-CAPT','XXXXX-RAM4-XXXX'),
    (null,'M4611005','Captain`s EFB Electronics and Display Units','LS1825572','EFB-CAPT','ACZ5A-83CJ-0110'),
    (null,'M4611005','Captain`s EFB Electronics and Display Units','LS1825572','EFB-CAPT','ACZ4A-83JR-0100'),
    (null,'M4611005','Captain`s EFB Electronics and Display Units','LS1825572','EFB-CAPT','USI2C-ATLM-E046'),
    (null,'M4611005','Captain`s EFB Electronics and Display Units','LS1825572','EFB-CAPT','USI3F-ATLP-E048'),
    (null,'M4611005','Captain`s EFB Electronics and Display Units','LS1825572','EFB-CAPT','RAM32-ATLC-E003'),
    (null,'M4611005','Captain`s EFB Electronics and Display Units','LS1825572','EFB-CAPT','RAM29-ATLX-E003'),
    (null,'M4611005','Captain`s EFB Electronics and Display Units','LS1825572','EFB-CAPT','USI22-ATLC-E046'),
    (null,'M4611005','Captain`s EFB Electronics and Display Units','LS1825572','EFB-CAPT','BFB51-EBSC-0022'),
    (null,'M4611005','Captain`s EFB Electronics and Display Units','LS1825572','EFB-CAPT','JEP47-ENRC-0002'),
    (null,'M4611005','Captain`s EFB Electronics and Display Units','LS1825572','EFB-CAPT','XXXXX-ENRN-XXXX'),
    (null,'M4611005','Captain`s EFB Electronics and Display Units','LS1825572','EFB-CAPT','JEP5B-ESAP-0056'),
    (null,'M4611005','Captain`s EFB Electronics and Display Units','LS1825572','EFB-CAPT','JEP4B-ESAC-0022'),
    (null,'M4611005','Captain`s EFB Electronics and Display Units','LS1825572','EFB-CAPT','JEP55-ENRT-0007'),
    (null,'M4611005','Captain`s EFB Electronics and Display Units','LS1825572','EFB-CAPT','JEP59-ESAU-0004'),
    (null,'M4611005','Captain`s EFB Electronics and Display Units','LS1825572','EFB-CAPT','OPT55-EDCP-0408'),
    (null,'M4611005','Captain`s EFB Electronics and Display Units','LS1825572','EFB-CAPT','XXXXX-DGEN-XXXX'),
    (null,'M4611005','Captain`s EFB Electronics and Display Units','LS1825572','EFB-CAPT','XXXXX-DCAT-XXXX'),
    (null,'M4611005','Captain`s EFB Electronics and Display Units','LS1825572','EFB-CAPT','XXXXX-ECAP-XXXX'),
    (null,'M4611005','Captain`s EFB Electronics and Display Units','LS1825572','EFB-CAPT','XXXXX-DACA-XXXX'),
    (null,'M4611005','Captain`s EFB Electronics and Display Units','LS1825572','EFB-CAPT','XXXXX-DAFM-XXXX'),
    (null,'M4611005','Captain`s EFB Electronics and Display Units','LS1825572','EFB-CAPT','XXXXX-DAWB-XXXX'),
    (null,'M4611005','Captain`s EFB Electronics and Display Units','LS1825572','EFB-CAPT','XXXXX-DAWS-XXXX'),
    (null,'M4611005','Captain`s EFB Electronics and Display Units','LS1825572','EFB-CAPT','XXXXX-DAWC-XXXX '),
    (null,'M4611005','Captain`s EFB Electronics and Display Units','LS1825572','EFB-CAPT','XXXXX-DAWT-XXXX'),
    (null,'M4611005','Captain`s EFB Electronics and Display Units','LS1825572','EFB-CAPT','XXXXX-DAWU-XXXX'),
    (null,'M4611005','Captain`s EFB Electronics and Display Units','LS1825572','EFB-CAPT','XXXXX-DAFR-XXXX'),
    (null,'M4611005','Captain`s EFB Electronics and Display Units','LS1825572','EFB-CAPT','XXXXX-DEUR-XXXX'),
    (null,'M4611005','Captain`s EFB Electronics and Display Units','LS1825572','EFB-CAPT','XXXXX-DM1D-XXXX'),
    (null,'M4611005','Captain`s EFB Electronics and Display Units','LS1825572','EFB-CAPT','XXXXX-DNAM-XXXX'),
    (null,'M4611005','Captain`s EFB Electronics and Display Units','LS1825572','EFB-CAPT','XXXXX-DSAM-XXXX'),
    (null,'M4611005','Captain`s EFB Electronics and Display Units','LS1825572','EFB-CAPT','XXXXX-DCDD-XXXX'),
    (null,'M4611005','Captain`s EFB Electronics and Display Units','LS1825572','EFB-CAPT','XXXXX-DMDS-XXXX'),
    (null,'M4611005','Captain`s EFB Electronics and Display Units','LS1825572','EFB-CAPT','XXXXX-DN0E-XXXX'),
    (null,'M4611005','Captain`s EFB Electronics and Display Units','LS1825572','EFB-CAPT','XXXXX-D0MA-XXXX'),
    (null,'M4611005','Captain`s EFB Electronics and Display Units','LS1825572','EFB-CAPT','XXXXX-DPUG-XXXX'),
    (null,'M4611005','Captain`s EFB Electronics and Display Units','LS1825572','EFB-CAPT','XXXXX-DSAF-XXXX'),
    (null,'M4611005','Captain`s EFB Electronics and Display Units','LS1825572','EFB-CAPT','XXXXX-DS0P-XXXX'),
    (null,'M4611005','Captain`s EFB Electronics and Display Units','LS1825572','EFB-CAPT','XXXXX-EDLC-XXXX'),
    (null,'M4611005','Captain`s EFB Electronics and Display Units','LS1825572','EFB-CAPT','XXXXX-DFC0-XXXX'),
    (null,'M4611005','Captain`s EFB Electronics and Display Units','LS1825572','EFB-CAPT','XXXXX-DFCB-XXXX'),
    (null,'M4611005','Captain`s EFB Electronics and Display Units','LS1825572','EFB-CAPT','XXXXX-DFCT-XXXX'),
    (null,'M4611005','Captain`s EFB Electronics and Display Units','LS1825572','EFB-CAPT','XXXXX-DGFL-XXXX'),
    (null,'M4611005','Captain`s EFB Electronics and Display Units','LS1825572','EFB-CAPT','XXXXX-DM0C-XXXX'),
    (null,'M4611005','Captain`s EFB Electronics and Display Units','LS1825572','EFB-CAPT','XXXXX-D0LS-XXXX'),
    (null,'M4611005','Captain`s EFB Electronics and Display Units','LS1825572','EFB-CAPT','XXXXX-D0SU-XXXX'),
    (null,'M4611005','Captain`s EFB Electronics and Display Units','LS1825572','EFB-CAPT','XXXXX-DPAR-XXXX'),
    (null,'M4611005','Captain`s EFB Electronics and Display Units','LS1825572','EFB-CAPT','XXXXX-D0RH-XXXX'),
    (null,'M4611005','Captain`s EFB Electronics and Display Units','LS1825572','EFB-CAPT','XXXXX-EDCY-XXXX'),
    (null,'M4611005','Captain`s EFB Electronics and Display Units','LS1825572','EFB-CAPT','XXXXX-EMSC-XXXX'),
    (null,'M4611005','Captain`s EFB Electronics and Display Units','LS1825572','EFB-CAPT','XXXXX-PDAP-XXXX'),
    (null,'M4611005','Captain`s EFB Electronics and Display Units','LS1825572','EFB-CAPT','XXXXX-PRFA-XXXX'),
    (null,'M4611005','Captain`s EFB Electronics and Display Units','LS1825572','EFB-CAPT','XXXXX-PCFG-XXXX'),
    (null,'M4611005','Captain`s EFB Electronics and Display Units','LS1825572','EFB-CAPT','XXXXXPDDM-XXXX'),
    (null,'M4611005','Captain`s EFB Electronics and Display Units','LS1825572','EFB-CAPT','XXXXX-PDPL-XXXX'),
    (null,'M4611005','Captain`s EFB Electronics and Display Units','LS1825572','EFB-CAPT','XXXXX-PDSP-XXXX'),
    (null,'M4611005','Captain`s EFB Electronics and Display Units','LS1825572','EFB-CAPT','XXXXX-ESCC-XXXX'),
    (null,'M4611005','Captain`s EFB Electronics and Display Units','LS1825572','EFB-CAPT','XXXXX-TWRM-XXXX'),
    (null,'M4611005','Captain`s EFB Electronics and Display Units','LS1825572','EFB-CAPT','XXXXX-CHTP-XXXX'),
    (null,'M4611005','Captain`s EFB Electronics and Display Units','LS1825572','EFB-CAPT','XXXXX-CHCS-XXXX'),
    (null,'M4611005','Captain`s EFB Electronics and Display Units','LS1825572','EFB-CAPT','XXXXX-ADCP-XXXX'),
    (null,'M4611005','Captain`s EFB Electronics and Display Units','LS1825572','EFB-CAPT','RAM5B-ADCC-0011  '),
    (null,'M4611005','Captain`s EFB Electronics and Display Units','LS1825572','EFB-CAPT',NULL),
    (null,'M4611005','Captain`s EFB Electronics and Display Units','LS1825572','EFB-CAPT','ACZ26-811F-0110'),
    (null,'M4611005','Captain`s EFB Electronics and Display Units','LS1825572','EFB-CAPT','ACZ23-805A-0160'),
    (null,'M4611005','Captain`s EFB Electronics and Display Units','LS1825572','EFB-CAPT','RAM5B-DASR-0001'),
    (null,'M4611005','Captain`s EFB Electronics and Display Units','LS1825572','EFB-CAPT','ACZ34-7YWU-0110'),
    (null,'M4611005','Captain`s EFB Electronics and Display Units','LS1825572','EFB-CAPT','XXXXX-DMEP-XXXX'),
    (null,'M4611005','Captain`s EFB Electronics and Display Units','LS1825572','EFB-CAPT','BFB5D-ESRV-0009'),
    (null,'M4611005','Captain`s EFB Electronics and Display Units','LS1825572','EFB-CAPT','OPT55-EWCB-0409'),
    (null,'M4611005','Captain`s EFB Electronics and Display Units','LS1825572','EFB-CAPT','ACZ27-811G-0110'),
    (null,'M4611005','Captain`s EFB Electronics and Display Units','LS1825572','EFB-CAPT','ACZ5C-8049-0155'),
    (null,'M4611005','Captain`s EFB Electronics and Display Units','LS1825572','EFB-CAPT','RAM25-121L-0005'),
    (null,'M4611005','Captain`s EFB Electronics and Display Units','LS1825572','EFB-CAPT','RAM3D-121W-0006'),
    (null,'M4611005','Captain`s EFB Electronics and Display Units','LS1825572','EFB-CAPT','BFB38-L025-4001'),
    (null,'M4611005','Captain`s EFB Electronics and Display Units','LS1825572','EFB-CAPT','RAM4A-TCCC-0003'),
    (null,'M4611005','Captain`s EFB Electronics and Display Units','LS1825572','EFB-CAPT','ACZ50-8241-0160'),
    (null,'M4611005','Captain`s EFB Electronics and Display Units','LS1825572','EFB-CAPT','BFB48-WPMA-0014'),
    (null,'M4611005','Captain`s EFB Electronics and Display Units','LS1825572','EFB-CAPT','BFB47-WPMC-0008'),
    (null,'M4611006','FO`s EFB Electronics and Display Units','LS1965716','EFB-FO','ROZ4B-V01P-8003'),
    (null,'M4611006','FO`s EFB Electronics and Display Units','LS1965716','EFB-FO','ROZ48-V01S-8003'),
    (null,'M4611006','FO`s EFB Electronics and Display Units','LS1965716','EFB-FO','ROZ58-V01C-8003'),
    (null,'M4611006','FO`s EFB Electronics and Display Units','LS1965716','EFB-FO','COL47-0017-0001'),
    (null,'M4611006','FO`s EFB Electronics and Display Units','LS1965716','EFB-FO','XXXXX-RAM4-XXXX'),
    (null,'M4611006','FO`s EFB Electronics and Display Units','LS1965716','EFB-FO','ACZ5A-83CJ-0110'),
    (null,'M4611006','FO`s EFB Electronics and Display Units','LS1965716','EFB-FO','ACZ4A-83JR-0100'),
    (null,'M4611006','FO`s EFB Electronics and Display Units','LS1965716','EFB-FO','USI2C-ATLM-E046'),
    (null,'M4611006','FO`s EFB Electronics and Display Units','LS1965716','EFB-FO','USI3F-ATLP-E048'),
    (null,'M4611006','FO`s EFB Electronics and Display Units','LS1965716','EFB-FO','RAM32-ATLC-E003'),
    (null,'M4611006','FO`s EFB Electronics and Display Units','LS1965716','EFB-FO','RAM29-ATLX-E003'),
    (null,'M4611006','FO`s EFB Electronics and Display Units','LS1965716','EFB-FO','USI22-ATLC-E046'),
    (null,'M4611006','FO`s EFB Electronics and Display Units','LS1965716','EFB-FO','BFB51-EBSC-0022'),
    (null,'M4611006','FO`s EFB Electronics and Display Units','LS1965716','EFB-FO','JEP47-ENRC-0002'),
    (null,'M4611006','FO`s EFB Electronics and Display Units','LS1965716','EFB-FO','XXXXX-ENRN-XXXX'),
    (null,'M4611006','FO`s EFB Electronics and Display Units','LS1965716','EFB-FO','JEP5B-ESAP-0056'),
    (null,'M4611006','FO`s EFB Electronics and Display Units','LS1965716','EFB-FO','JEP4B-ESAC-0022'),
    (null,'M4611006','FO`s EFB Electronics and Display Units','LS1965716','EFB-FO','JEP55-ENRT-0007'),
    (null,'M4611006','FO`s EFB Electronics and Display Units','LS1965716','EFB-FO','JEP59-ESAU-0004'),
    (null,'M4611006','FO`s EFB Electronics and Display Units','LS1965716','EFB-FO','OPT55-EDCP-0408'),
    (null,'M4611006','FO`s EFB Electronics and Display Units','LS1965716','EFB-FO','XXXXX-DGEN-XXXX');
INSERT INTO library VALUES
    (null,'M4611006','FO`s EFB Electronics and Display Units','LS1965716','EFB-FO','XXXXX-DCAT-XXXX'),
    (null,'M4611006','FO`s EFB Electronics and Display Units','LS1965716','EFB-FO','XXXXX-ECAP-XXXX'),
    (null,'M4611006','FO`s EFB Electronics and Display Units','LS1965716','EFB-FO','XXXXX-DACA-XXXX'),
    (null,'M4611006','FO`s EFB Electronics and Display Units','LS1965716','EFB-FO','XXXXX-DAFM-XXXX'),
    (null,'M4611006','FO`s EFB Electronics and Display Units','LS1965716','EFB-FO','XXXXX-DAWB-XXXX'),
    (null,'M4611006','FO`s EFB Electronics and Display Units','LS1965716','EFB-FO','XXXXX-DAWS-XXXX'),
    (null,'M4611006','FO`s EFB Electronics and Display Units','LS1965716','EFB-FO','XXXXX-DAWC-XXXX '),
    (null,'M4611006','FO`s EFB Electronics and Display Units','LS1965716','EFB-FO','XXXXX-DAWT-XXXX'),
    (null,'M4611006','FO`s EFB Electronics and Display Units','LS1965716','EFB-FO','XXXXX-DAWU-XXXX'),
    (null,'M4611006','FO`s EFB Electronics and Display Units','LS1965716','EFB-FO','XXXXX-DAFR-XXXX'),
    (null,'M4611006','FO`s EFB Electronics and Display Units','LS1965716','EFB-FO','XXXXX-DEUR-XXXX'),
    (null,'M4611006','FO`s EFB Electronics and Display Units','LS1965716','EFB-FO','XXXXX-DM1D-XXXX'),
    (null,'M4611006','FO`s EFB Electronics and Display Units','LS1965716','EFB-FO','XXXXX-DNAM-XXXX'),
    (null,'M4611006','FO`s EFB Electronics and Display Units','LS1965716','EFB-FO','XXXXX-DSAM-XXXX'),
    (null,'M4611006','FO`s EFB Electronics and Display Units','LS1965716','EFB-FO','XXXXX-DCDD-XXXX'),
    (null,'M4611006','FO`s EFB Electronics and Display Units','LS1965716','EFB-FO','XXXXX-DMDS-XXXX'),
    (null,'M4611006','FO`s EFB Electronics and Display Units','LS1965716','EFB-FO','XXXXX-DN0E-XXXX'),
    (null,'M4611006','FO`s EFB Electronics and Display Units','LS1965716','EFB-FO','XXXXX-D0MA-XXXX'),
    (null,'M4611006','FO`s EFB Electronics and Display Units','LS1965716','EFB-FO','XXXXX-DPUG-XXXX'),
    (null,'M4611006','FO`s EFB Electronics and Display Units','LS1965716','EFB-FO','XXXXX-DSAF-XXXX'),
    (null,'M4611006','FO`s EFB Electronics and Display Units','LS1965716','EFB-FO','XXXXX-DS0P-XXXX'),
    (null,'M4611006','FO`s EFB Electronics and Display Units','LS1965716','EFB-FO','XXXXX-EDLC-XXXX'),
    (null,'M4611006','FO`s EFB Electronics and Display Units','LS1965716','EFB-FO','XXXXX-DFC0-XXXX'),
    (null,'M4611006','FO`s EFB Electronics and Display Units','LS1965716','EFB-FO','XXXXX-DFCB-XXXX'),
    (null,'M4611006','FO`s EFB Electronics and Display Units','LS1965716','EFB-FO','XXXXX-DFCT-XXXX'),
    (null,'M4611006','FO`s EFB Electronics and Display Units','LS1965716','EFB-FO','XXXXX-DGFL-XXXX'),
    (null,'M4611006','FO`s EFB Electronics and Display Units','LS1965716','EFB-FO','XXXXX-DM0C-XXXX'),
    (null,'M4611006','FO`s EFB Electronics and Display Units','LS1965716','EFB-FO','XXXXX-D0LS-XXXX'),
    (null,'M4611006','FO`s EFB Electronics and Display Units','LS1965716','EFB-FO','XXXXX-D0SU-XXXX'),
    (null,'M4611006','FO`s EFB Electronics and Display Units','LS1965716','EFB-FO','XXXXX-DPAR-XXXX'),
    (null,'M4611006','FO`s EFB Electronics and Display Units','LS1965716','EFB-FO','XXXXX-D0RH-XXXX'),
    (null,'M4611006','FO`s EFB Electronics and Display Units','LS1965716','EFB-FO','XXXXX-EDCY-XXXX'),
    (null,'M4611006','FO`s EFB Electronics and Display Units','LS1965716','EFB-FO','XXXXX-EMSC-XXXX'),
    (null,'M4611006','FO`s EFB Electronics and Display Units','LS1965716','EFB-FO','XXXXX-PDAP-XXXX'),
    (null,'M4611006','FO`s EFB Electronics and Display Units','LS1965716','EFB-FO','XXXXX-PRFA-XXXX'),
    (null,'M4611006','FO`s EFB Electronics and Display Units','LS1965716','EFB-FO','XXXXX-PCFG-XXXX'),
    (null,'M4611006','FO`s EFB Electronics and Display Units','LS1965716','EFB-FO','XXXXXPDDM-XXXX'),
    (null,'M4611006','FO`s EFB Electronics and Display Units','LS1965716','EFB-FO','XXXXX-PDPL-XXXX'),
    (null,'M4611006','FO`s EFB Electronics and Display Units','LS1965716','EFB-FO','XXXXX-PDSP-XXXX'),
    (null,'M4611006','FO`s EFB Electronics and Display Units','LS1965716','EFB-FO','XXXXX-ESCC-XXXX'),
    (null,'M4611006','FO`s EFB Electronics and Display Units','LS1965716','EFB-FO','XXXXX-TWRM-XXXX'),
    (null,'M4611006','FO`s EFB Electronics and Display Units','LS1965716','EFB-FO','XXXXX-CHTP-XXXX'),
    (null,'M4611006','FO`s EFB Electronics and Display Units','LS1965716','EFB-FO','XXXXX-CHCS-XXXX'),
    (null,'M4611006','FO`s EFB Electronics and Display Units','LS1965716','EFB-FO','XXXXX-ADCP-XXXX'),
    (null,'M4611006','FO`s EFB Electronics and Display Units','LS1965716','EFB-FO','RAM5B-ADCC-0011  '),
    (null,'M4611006','FO`s EFB Electronics and Display Units','LS1965716','EFB-FO',NULL),
    (null,'M4611006','FO`s EFB Electronics and Display Units','LS1965716','EFB-FO','ACZ26-811F-0110'),
    (null,'M4611006','FO`s EFB Electronics and Display Units','LS1965716','EFB-FO','ACZ23-805A-0160'),
    (null,'M4611006','FO`s EFB Electronics and Display Units','LS1965716','EFB-FO','RAM5B-DASR-0001'),
    (null,'M4611006','FO`s EFB Electronics and Display Units','LS1965716','EFB-FO','ACZ34-7YWU-0110'),
    (null,'M4611006','FO`s EFB Electronics and Display Units','LS1965716','EFB-FO','XXXXX-DMEP-XXXX'),
    (null,'M4611006','FO`s EFB Electronics and Display Units','LS1965716','EFB-FO','BFB5D-ESRV-0009'),
    (null,'M4611006','FO`s EFB Electronics and Display Units','LS1965716','EFB-FO','OPT55-EWCB-0409'),
    (null,'M4611006','FO`s EFB Electronics and Display Units','LS1965716','EFB-FO','ACZ27-811G-0110'),
    (null,'M4611006','FO`s EFB Electronics and Display Units','LS1965716','EFB-FO','ACZ5C-8049-0155'),
    (null,'M4611006','FO`s EFB Electronics and Display Units','LS1965716','EFB-FO','RAM25-121L-0005'),
    (null,'M4611006','FO`s EFB Electronics and Display Units','LS1965716','EFB-FO','RAM3D-121W-0006'),
    (null,'M4611006','FO`s EFB Electronics and Display Units','LS1965716','EFB-FO','BFB38-L025-4001'),
    (null,'M4611006','FO`s EFB Electronics and Display Units','LS1965716','EFB-FO','RAM4A-TCCC-0003'),
    (null,'M4611006','FO`s EFB Electronics and Display Units','LS1965716','EFB-FO','ACZ50-8241-0160'),
    (null,'M4611006','FO`s EFB Electronics and Display Units','LS1965716','EFB-FO','BFB48-WPMA-0014'),
    (null,'M4611006','FO`s EFB Electronics and Display Units','LS1965716','EFB-FO','BFB47-WPMC-0008'),
    (null,'M4612009','Ethernet Gateway Module','LS1945124','CORE NETWORK EGM','BCG48-EGMC-0031'),
    (null,'M4612009','Ethernet Gateway Module','LS1945124','CORE NETWORK EGM','BCG2D-0000-00X3'),
    (null,'M4612007','Network Interface Module','LS1675091','CORE NETWORK NIM','COL41-0021-0002'),
    (null,'M4612007','Network Interface Module','LS1675091','CORE NETWORK NIM','BCG22-NET9-0020'),
    (null,'M4612007','Network Interface Module','LS1675091','CORE NETWORK NIM','BCG37-0000-01D4'),
    (null,'M4612007','Network Interface Module','LS1675091','CORE NETWORK NIM','COL4B-0019-0021'),
    (null,'M4612007','Network Interface Module','LS1675091','CORE NETWORK NIM','COL4B-0018-0002'),
    (null,'M4612007','Network Interface Module','LS1675091','CORE NETWORK NIM','HAM47-0700-3315'),
    (null,'M4611011','TCU Module','LS3315480','MODULE-TCU-1','TDY41-7095-0201'),
    (null,'M4612002','Controller Server Module','LS1805496','CORE NETWORK CSM','BCG38-0000-04K1'),
    (null,'M4612002','Controller Server Module','LS1805496','CORE NETWORK CSM','OPT45-CNCB-0406'),
    (null,'M4612002','Controller Server Module','LS1805496','CORE NETWORK CSM','USI29-ATLC-N046'),
    (null,'M4612002','Controller Server Module','LS1805496','CORE NETWORK CSM','USI3F-ATLP-N052'),
    (null,'M4612002','Controller Server Module','LS1805496','CORE NETWORK CSM','RAM22-ATLX-N003'),
    (null,'M4612002','Controller Server Module','LS1805496','CORE NETWORK CSM','RAM39-ATLC-N003'),
    (null,'M4612002','Controller Server Module','LS1805496','CORE NETWORK CSM','TET5A-LSSP-0003'),
    (null,'M4612002','Controller Server Module','LS1805496','CORE NETWORK CSM','RAM52-CNCC-0001'),
    (null,'M4612002','Controller Server Module','LS1805496','CORE NETWORK CSM','BCG5F-MGRC-0013'),
    (null,'M4612002','Controller Server Module','LS1805496','CORE NETWORK CSM','BCG29-0000-00X7'),
    (null,'M4612002','Controller Server Module','LS1805496','CORE NETWORK CSM','RAM25-ALC1-0004'),
    (null,'M4612002','Controller Server Module','LS1805496','CORE NETWORK CSM','RAM33-CRL1-0001'),
    (null,'M4612002','Controller Server Module','LS1805496','CORE NETWORK CSM','RAM37-APK1-0002'),
    (null,'M4612002','Controller Server Module','LS1805496','CORE NETWORK CSM','RAM3D-GTC1-0002'),
    (null,'M4612002','Controller Server Module','LS1805496','CORE NETWORK CSM','BFB5A-CNSC-0001'),
    (null,'M4612002','Controller Server Module','LS1805496','CORE NETWORK CSM','RAM2F-TCU1-0002'),
    (null,'M4961002','APU Controller','LS1052847','APUC','HAM2F-Y700-7156'),
    (null,'M5021101','Fwd Cargo Spring-Lift Power Drive Unit 1L','LS3430261','CMDU PDU-FWD 1L','GCP3B-787S-0141'),
    (null,'M5021102','Fwd Cargo Spring-Lift Power Drive Unit 2L','LS3040355','CMDU PDU-FWD 2L','GCP3B-787S-0141'),
    (null,'M5021103','Fwd Cargo Self-Lift Power Drive Unit 3L','LS3880474','CMDU PDU-FWD 3L','GCP3B-787S-0141'),
    (null,'M5021105','Fwd Cargo Self-Lift Power Drive Unit 4L1','LS3450624','CMDU PDU-FWD 4L1','GCP3B-787S-0141'),
    (null,'M5021104','Fwd Cargo Self-Lift Power Drive Unit 4L2','LS3230633','CMDU PDU-FWD 4L2','GCP3B-787S-0141'),
    (null,'M5021106','Fwd Cargo Self-Lift Power Drive Unit 5L','LS3021002','CMDU PDU-FWD 5L','GCP3B-787S-0141'),
    (null,'M5021107','Fwd Cargo Self-Lift Power Drive Unit 6L','LS3381105','CMDU PDU-FWD 6L','GCP3B-787S-0141'),
    (null,'M5021108','Fwd Cargo Spring-Lift Power Drive Unit 7L','LS3591311','CMDU PDU-FWD 7L','GCP3B-787S-0141'),
    (null,'M5021109','Fwd Cargo Spring-Lift Power Drive Unit 8L','LS3211468','CMDU PDU-FWD 8L','GCP3B-787S-0141'),
    (null,'M5021110','Fwd Cargo Spring-Lift Power Drive Unit 9L','LS3401507','CMDU PDU-FWD 9L','GCP3B-787S-0141'),
    (null,'M5021111','Fwd Cargo Spring-Lift Power Drive Unit 10L','LS2039690','CMDU PDU-FWD 10L','GCP3B-787S-0141'),
    (null,'M5021112','Fwd Cargo Spring-Lift Power Drive Unit 11L','LS3240008','CMDU PDU-FWD 11L','GCP3B-787S-0141'),
    (null,'M5021113','Fwd Cargo Spring-Lift Power Drive Unit 12L','LS3750152','CMDU PDU-FWD 12L','GCP3B-787S-0141'),
    (null,'M5021201','Fwd Cargo Spring-Lift Power Drive Unit 1R','LS3360284','CMDU PDU-FWD 1R','GCP3B-787S-0141'),
    (null,'M5021202','Fwd Cargo Spring-Lift Power Drive Unit 2R','LS3310369','CMDU PDU-FWD 2R','GCP3B-787S-0141'),
    (null,'M5021203','Fwd Cargo Self-Lift Power Drive Unit 3R','LS3650579','CMDU PDU-FWD 3R','GCP3B-787S-0141'),
    (null,'M5021204','Fwd Cargo Self-Lift Power Drive Unit 4R1','LS3740781','CMDU PDU-FWD 4R1','GCP3B-787S-0141'),
    (null,'M5021205','Fwd Cargo Self-Lift Power Drive Unit 4R2','LS3220925','CMDU PDU-FWD 4R2','GCP3B-787S-0141'),
    (null,'M5021218','Fwd Cargo Self-Lift Power Drive Unit 4R3','LS3440932','CMDU PDU-FWD 4R3','GCP3B-787S-0141'),
    (null,'M5021206','Fwd Cargo Self-Lift Power Drive Unit 5R','LS3741093','CMDU PDU-FWD 5R','GCP3B-787S-0141'),
    (null,'M5021207','Fwd Cargo Self-Lift Power Drive Unit 6R','LS3601262','CMDU PDU-FWD 6R','GCP3B-787S-0141'),
    (null,'M5021208','Fwd Cargo Spring-Lift Power Drive Unit 7R','LS3171420','CMDU PDU-FWD 7R','GCP3B-787S-0141'),
    (null,'M5021209','Fwd Cargo Spring-Lift Power Drive Unit 8R','LS3341472','CMDU PDU-FWD 8R','GCP3B-787S-0141'),
    (null,'M5021210','Fwd Cargo Spring-Lift Power Drive Unit 9R','LS3991533','CMDU PDU-FWD 9R','GCP3B-787S-0141'),
    (null,'M5021211','Fwd Cargo Spring-Lift Power Drive Unit 10R','LS2759812','CMDU PDU-FWD 10R','GCP3B-787S-0141'),
    (null,'M5021212','Fwd Cargo Spring-Lift Power Drive Unit 11R','LS3390051','CMDU PDU-FWD 11R','GCP3B-787S-0141'),
    (null,'M5021213','Fwd Cargo Spring-Lift Power Drive Unit 12R','LS3840196','CMDU PDU-FWD 12R','GCP3B-787S-0141'),
    (null,'M5021301','Forward Cargo Maintenance Display Unit','LS1452618','CMDU-FWD','GCP3C-787S-0311'),
    (null,'M5021401','Aft Cargo Spring-Lift Power Drive Unit 1L','LS2057748','CMDU PDU-AFT 1L','GCP3B-787S-0141'),
    (null,'M5021402','Aft Cargo Spring-Lift Power Drive Unit 2L','LS2777853','CMDU PDU-AFT 2L','GCP3B-787S-0141'),
    (null,'M5021403','Aft Cargo Spring-Lift Power Drive Unit 3L','LS2678449','CMDU PDU-AFT 3L','NOT AVAILABLE'),
    (null,'M5021404','Aft Cargo Spring-Lift Power Drive Unit 4L','LS2738556','CMDU PDU-AFT 4L','GCP3B-787S-0141'),
    (null,'M5021405','Aft Cargo Self-Lift Power Drive Unit 5L','LS2208693','CMDU PDU-AFT 5L','GCP3B-787S-0141'),
    (null,'M5021406','Aft Cargo Self-Lift Power Drive Unit 6L','LS2668824','CMDU PDU-AFT 6L','GCP3B-787S-0141'),
    (null,'M5021413','Aft Cargo Self-Lift Power Drive Unit 7L1','LS2629029','CMDU PDU-AFT 7L1','GCP3B-787S-0141'),
    (null,'M5021407','Aft Cargo Self-Lift Power Drive Unit 7L2','LS2339208','CMDU PDU-AFT 7L2','GCP3B-787S-0141'),
    (null,'M5021408','Aft Cargo Self-Lift Power Drive Unit 8L','LS2599413','CMDU PDU-AFT 8L','GCP3B-787S-0141'),
    (null,'M5021409','Aft Cargo Spring-Lift Power Drive Unit 9L','LS2729497','CMDU PDU-AFT 9L','GCP3B-787S-0141'),
    (null,'M5021410','Aft Cargo Spring-Lift Power Drive Unit 10L','LS2597658','CMDU PDU-AFT 10L','GCP3B-787S-0141'),
    (null,'M5021501','Aft Cargo Spring-Lift Power Drive Unit 1R','LS2947773','CMDU PDU-AFT 1R','GCP3B-787S-0141'),
    (null,'M5021502','Aft Cargo Spring-Lift Power Drive Unit 2R','LS2998260','CMDU PDU-AFT 2R','NOT AVAILABLE'),
    (null,'M5021503','Aft Cargo Spring-Lift Power Drive Unit 3R','LS2518494','CMDU PDU-AFT 3R','NOT AVAILABLE'),
    (null,'M5021504','Aft Cargo Spring-Lift Power Drive Unit 4R','LS2818608','CMDU PDU-AFT 4R','GCP3B-787S-0141'),
    (null,'M5021505','Aft Cargo Self-Lift Power Drive Unit 5R','LS2958782','CMDU PDU-AFT 5R','GCP3B-787S-0141'),
    (null,'M5021506','Aft Cargo Self-Lift Power Drive Unit 6R','LS2478907','CMDU PDU-AFT 6R','GCP3B-787S-0141'),
    (null,'M5021507','Aft Cargo Self-Lift Power Drive Unit 7R1','LS2159253','CMDU PDU-AFT 7R1','GCP3B-787S-0141'),
    (null,'M5021513','Aft Cargo Self-Lift Power Drive Unit 7R2','LS2269287','CMDU PDU-AFT 7R2','GCP3B-787S-0141'),
    (null,'M5021514','Aft Cargo Self-Lift Power Drive Unit 7R3','LS2029338','CMDU PDU-AFT 7R3','GCP3B-787S-0141'),
    (null,'M5021508','Aft Cargo Self-Lift Power Drive Unit 8R','LS2249420','CMDU PDU-AFT 8R','GCP3B-787S-0141'),
    (null,'M5021509','Aft Cargo Spring-Lift Power Drive Unit 9R','LS2639581','CMDU PDU-AFT 9R','GCP3B-787S-0141'),
    (null,'M5021510','Aft Cargo Spring-Lift Power Drive Unit 10R','LS2967697','CMDU PDU-AFT 10R','GCP3B-787S-0141'),
    (null,'M5021302','Aft Cargo Maintenance Display Unit','LS1912666','CMDU-AFT','GCP3C-787S-0311'),
    (null,'M7321003','Electronic Engine Control Chan-A (Left Eng)','LS1582852','EEC-L CHA','GEC45-2124-2322 '),
    (null,'M7321003','Electronic Engine Control Chan-B (Left Eng)','LS1432876','EEC-L CHB','GEC45-2124-2322'),
    (null,'M7731001','Engine Monitor Unit (Left Engine)','LS1953078','EMU-L','GEC4E-2462-8104'),
    (null,'M7731001','Engine Monitor Unit (Left Engine)','LS1953078','EMU-L','GEC4D-2462-8204'),
    (null,'M7321003','Electronic Engine Control Chan-A (Right Eng)','LS1883021','EEC-R CHA','GEC45-2124-2322'),
    (null,'M7321003','Electronic Engine Control Chan-B (Right Eng)','LS1243065','EEC-R CHB','GEC45-2124-2322'),
    (null,'M7731001','Engine Monitor Unit (Right Engine)','LS1333275','EMU-R','GEC4E-2462-8104'),
    (null,'M7731001','Engine Monitor Unit (Right Engine)','LS1333275','EMU-R','GEC4D-2462-8204');